magnetism/plates/different R material 1/3000.csv

Record Length,2500,Points,-12.4999993E-3,176.00001395E-3,,Record Length,2500,Points,-12.4999993E-3,3.19999981,
Sample Interval,9.999999747E-6,s,-12.4899996E-3,176.00001395E-3,,Sample Interval,9.999999747E-6,s,-12.4899996E-3,3.19999981,
Trigger Point,1.2500000E3,Samples,-12.4799991E-3,176.00001395E-3,,Trigger Point,1.2500000E3,Samples,-12.4799991E-3,3.15999985,
,,,-12.4699995E-3,176.00001395E-3,,,,,-12.4699995E-3,3.15999985,
,,,-12.4599990E-3,176.00001395E-3,,,,,-12.4599990E-3,3.15999985,
,,,-12.4499993E-3,176.00001395E-3,,,,,-12.4499993E-3,3.19999981,
Source,CH1,,-12.4399988E-3,176.00001395E-3,,Source,CH2,,-12.4399988E-3,3.19999981,
Vertical Units,Volts,,-12.4299992E-3,176.00001395E-3,,Vertical Units,Volts,,-12.4299992E-3,3.15999985,
Vertical Scale,100.0000047E-3,,-12.4199996E-3,172.00000584E-3,,Vertical Scale,999.999977648E-3,,-12.4199996E-3,3.15999985,
Vertical Offset,0,,-12.4099990E-3,172.00000584E-3,,Vertical Offset,0,,-12.4099990E-3,3.15999985,
Horizontal Units,s,,-12.3999994E-3,172.00000584E-3,,Horizontal Units,s,,-12.3999994E-3,3.15999985,
Horizontal Scale,2.4999999E-3,,-12.3899989E-3,172.00000584E-3,,Horizontal Scale,2.4999999E-3,,-12.3899989E-3,3.15999985,
Pt Fmt,Y,,-12.3799993E-3,172.00000584E-3,,Pt Fmt,Y,,-12.3799993E-3,3.15999985,
Yzero,-40.00000000E-3,,-12.3699997E-3,172.00000584E-3,,Yzero,0.0,,-12.3699997E-3,3.15999985,
Probe Atten,1.000000,,-12.3599991E-3,172.00000584E-3,,Probe Atten,10.0000000,,-12.3599991E-3,3.15999985,
,,,-12.3499995E-3,168.00001264E-3,,,,,-12.3499995E-3,3.15999985,
Note,TBS 1052B-EDU - 17:14:52   28/05/2025,,-12.3399990E-3,168.00001264E-3,,Note,TBS 1052B-EDU - 17:14:52   28/05/2025,,-12.3399990E-3,3.15999985,
,,,-12.3299994E-3,168.00001264E-3,,,,,-12.3299994E-3,3.15999985,
,,,-12.3199988E-3,168.00001264E-3,,,,,-12.3199988E-3,3.11999989,
,,,-12.3099992E-3,164.00000453E-3,,,,,-12.3099992E-3,3.11999989,
,,,-12.2999996E-3,168.00001264E-3,,,,,-12.2999996E-3,3.15999985,
,,,-12.2899991E-3,164.00000453E-3,,,,,-12.2899991E-3,3.15999985,
,,,-12.2799994E-3,164.00000453E-3,,,,,-12.2799994E-3,3.15999985,
,,,-12.2699989E-3,168.00001264E-3,,,,,-12.2699989E-3,3.11999989,
,,,-12.2599993E-3,160.00001132E-3,,,,,-12.2599993E-3,3.11999989,
,,,-12.2499997E-3,160.00001132E-3,,,,,-12.2499997E-3,3.11999989,
,,,-12.2399991E-3,164.00000453E-3,,,,,-12.2399991E-3,3.11999989,
,,,-12.2299995E-3,156.00000322E-3,,,,,-12.2299995E-3,3.11999989,
,,,-12.2199990E-3,160.00001132E-3,,,,,-12.2199990E-3,3.11999989,
,,,-12.2099994E-3,160.00001132E-3,,,,,-12.2099994E-3,3.11999989,
,,,-12.1999988E-3,156.00000322E-3,,,,,-12.1999988E-3,3.11999989,
,,,-12.1899992E-3,156.00000322E-3,,,,,-12.1899992E-3,3.11999989,
,,,-12.1799996E-3,156.00000322E-3,,,,,-12.1799996E-3,3.11999989,
,,,-12.1699991E-3,156.00000322E-3,,,,,-12.1699991E-3,3.11999989,
,,,-12.1599995E-3,156.00000322E-3,,,,,-12.1599995E-3,3.11999989,
,,,-12.1499989E-3,152.00001001E-3,,,,,-12.1499989E-3,3.11999989,
,,,-12.1399993E-3,156.00000322E-3,,,,,-12.1399993E-3,3.07999992,
,,,-12.1299997E-3,156.00000322E-3,,,,,-12.1299997E-3,3.11999989,
,,,-12.1199992E-3,152.00001001E-3,,,,,-12.1199992E-3,3.11999989,
,,,-12.1099995E-3,156.00000322E-3,,,,,-12.1099995E-3,3.11999989,
,,,-12.0999990E-3,148.0000019E-3,,,,,-12.0999990E-3,3.11999989,
,,,-12.0899994E-3,152.00001001E-3,,,,,-12.0899994E-3,3.11999989,
,,,-12.0799989E-3,152.00001001E-3,,,,,-12.0799989E-3,3.07999992,
,,,-12.0699992E-3,152.00001001E-3,,,,,-12.0699992E-3,3.07999992,
,,,-12.0599996E-3,148.0000019E-3,,,,,-12.0599996E-3,3.11999989,
,,,-12.0499991E-3,148.0000019E-3,,,,,-12.0499991E-3,3.07999992,
,,,-12.0399995E-3,148.0000019E-3,,,,,-12.0399995E-3,3.07999992,
,,,-12.0299989E-3,148.0000019E-3,,,,,-12.0299989E-3,3.07999992,
,,,-12.0199993E-3,144.0000087E-3,,,,,-12.0199993E-3,3.07999992,
,,,-12.0099997E-3,148.0000019E-3,,,,,-12.0099997E-3,3.07999992,
,,,-11.9999992E-3,148.0000019E-3,,,,,-11.9999992E-3,3.07999992,
,,,-11.9899996E-3,144.0000087E-3,,,,,-11.9899996E-3,3.07999992,
,,,-11.9799990E-3,144.0000087E-3,,,,,-11.9799990E-3,3.07999992,
,,,-11.9699994E-3,144.0000087E-3,,,,,-11.9699994E-3,3.07999992,
,,,-11.9599989E-3,140.0000006E-3,,,,,-11.9599989E-3,3.07999992,
,,,-11.9499993E-3,144.0000087E-3,,,,,-11.9499993E-3,3.07999992,
,,,-11.9399996E-3,140.0000006E-3,,,,,-11.9399996E-3,3.07999992,
,,,-11.9299991E-3,140.0000006E-3,,,,,-11.9299991E-3,3.07999992,
,,,-11.9199995E-3,140.0000006E-3,,,,,-11.9199995E-3,3.07999992,
,,,-11.9099990E-3,140.0000006E-3,,,,,-11.9099990E-3,3.03999996,
,,,-11.8999993E-3,136.0000074E-3,,,,,-11.8999993E-3,3.07999992,
,,,-11.8899997E-3,140.0000006E-3,,,,,-11.8899997E-3,3.07999992,
,,,-11.8799992E-3,136.0000074E-3,,,,,-11.8799992E-3,3.03999996,
,,,-11.8699996E-3,136.0000074E-3,,,,,-11.8699996E-3,3.03999996,
,,,-11.8599990E-3,136.0000074E-3,,,,,-11.8599990E-3,3.03999996,
,,,-11.8499994E-3,131.9999993E-3,,,,,-11.8499994E-3,3.03999996,
,,,-11.8399989E-3,136.0000074E-3,,,,,-11.8399989E-3,3.03999996,
,,,-11.8299993E-3,131.9999993E-3,,,,,-11.8299993E-3,3.03999996,
,,,-11.8199997E-3,128.0000061E-3,,,,,-11.8199997E-3,3.00000000,
,,,-11.8099991E-3,128.0000061E-3,,,,,-11.8099991E-3,3.00000000,
,,,-11.7999995E-3,128.0000061E-3,,,,,-11.7999995E-3,3.00000000,
,,,-11.7899990E-3,128.0000061E-3,,,,,-11.7899990E-3,3.00000000,
,,,-11.7799994E-3,128.0000061E-3,,,,,-11.7799994E-3,3.00000000,
,,,-11.7699988E-3,131.9999993E-3,,,,,-11.7699988E-3,3.03999996,
,,,-11.7599992E-3,128.0000061E-3,,,,,-11.7599992E-3,3.00000000,
,,,-11.7499996E-3,124.0000054E-3,,,,,-11.7499996E-3,3.00000000,
,,,-11.7399991E-3,124.0000054E-3,,,,,-11.7399991E-3,3.00000000,
,,,-11.7299994E-3,124.0000054E-3,,,,,-11.7299994E-3,3.00000000,
,,,-11.7199989E-3,120.0000048E-3,,,,,-11.7199989E-3,3.00000000,
,,,-11.7099993E-3,124.0000054E-3,,,,,-11.7099993E-3,3.00000000,
,,,-11.6999997E-3,120.0000048E-3,,,,,-11.6999997E-3,2.96000004,
,,,-11.6899991E-3,120.0000048E-3,,,,,-11.6899991E-3,3.00000000,
,,,-11.6799995E-3,120.0000048E-3,,,,,-11.6799995E-3,2.96000004,
,,,-11.6699990E-3,116.0000041E-3,,,,,-11.6699990E-3,3.00000000,
,,,-11.6599994E-3,116.0000041E-3,,,,,-11.6599994E-3,2.96000004,
,,,-11.6499988E-3,112.0000035E-3,,,,,-11.6499988E-3,3.00000000,
,,,-11.6399992E-3,116.0000041E-3,,,,,-11.6399992E-3,2.96000004,
,,,-11.6299996E-3,112.0000035E-3,,,,,-11.6299996E-3,2.96000004,
,,,-11.6199991E-3,116.0000041E-3,,,,,-11.6199991E-3,2.96000004,
,,,-11.6099995E-3,112.0000035E-3,,,,,-11.6099995E-3,3.00000000,
,,,-11.5999989E-3,116.0000041E-3,,,,,-11.5999989E-3,2.96000004,
,,,-11.5899993E-3,112.0000035E-3,,,,,-11.5899993E-3,2.96000004,
,,,-11.5799997E-3,112.0000035E-3,,,,,-11.5799997E-3,2.96000004,
,,,-11.5699992E-3,112.0000035E-3,,,,,-11.5699992E-3,2.96000004,
,,,-11.5599995E-3,112.0000035E-3,,,,,-11.5599995E-3,2.96000004,
,,,-11.5499990E-3,108.0000028E-3,,,,,-11.5499990E-3,2.96000004,
,,,-11.5399994E-3,108.0000028E-3,,,,,-11.5399994E-3,2.91999984,
,,,-11.5299989E-3,112.0000035E-3,,,,,-11.5299989E-3,2.96000004,
,,,-11.5199992E-3,104.0000021E-3,,,,,-11.5199992E-3,2.91999984,
,,,-11.5099996E-3,104.0000021E-3,,,,,-11.5099996E-3,2.96000004,
,,,-11.4999991E-3,108.0000028E-3,,,,,-11.4999991E-3,2.96000004,
,,,-11.4899995E-3,104.0000021E-3,,,,,-11.4899995E-3,2.91999984,
,,,-11.4799989E-3,100.0000015E-3,,,,,-11.4799989E-3,2.91999984,
,,,-11.4699993E-3,104.0000021E-3,,,,,-11.4699993E-3,2.91999984,
,,,-11.4599997E-3,104.0000021E-3,,,,,-11.4599997E-3,2.91999984,
,,,-11.4499992E-3,100.0000015E-3,,,,,-11.4499992E-3,2.91999984,
,,,-11.4399996E-3,100.0000015E-3,,,,,-11.4399996E-3,2.91999984,
,,,-11.4299990E-3,100.0000015E-3,,,,,-11.4299990E-3,2.87999988,
,,,-11.4199994E-3,96.000000834E-3,,,,,-11.4199994E-3,2.87999988,
,,,-11.4099989E-3,100.0000015E-3,,,,,-11.4099989E-3,2.87999988,
,,,-11.3999993E-3,96.000000834E-3,,,,,-11.3999993E-3,2.87999988,
,,,-11.3899997E-3,96.000000834E-3,,,,,-11.3899997E-3,2.87999988,
,,,-11.3799991E-3,96.000000834E-3,,,,,-11.3799991E-3,2.87999988,
,,,-11.3699995E-3,96.000000834E-3,,,,,-11.3699995E-3,2.87999988,
,,,-11.3599990E-3,92.000007629E-3,,,,,-11.3599990E-3,2.87999988,
,,,-11.3499993E-3,92.000007629E-3,,,,,-11.3499993E-3,2.87999988,
,,,-11.3399997E-3,92.000007629E-3,,,,,-11.3399997E-3,2.87999988,
,,,-11.3299992E-3,88.000006974E-3,,,,,-11.3299992E-3,2.83999991,
,,,-11.3199996E-3,92.000007629E-3,,,,,-11.3199996E-3,2.87999988,
,,,-11.3099990E-3,84.000006318E-3,,,,,-11.3099990E-3,2.91999984,
,,,-11.2999994E-3,92.000007629E-3,,,,,-11.2999994E-3,2.83999991,
,,,-11.2899989E-3,88.000006974E-3,,,,,-11.2899989E-3,2.83999991,
,,,-11.2799993E-3,88.000006974E-3,,,,,-11.2799993E-3,2.83999991,
,,,-11.2699997E-3,88.000006974E-3,,,,,-11.2699997E-3,2.83999991,
,,,-11.2599991E-3,84.000006318E-3,,,,,-11.2599991E-3,2.83999991,
,,,-11.2499995E-3,88.000006974E-3,,,,,-11.2499995E-3,2.87999988,
,,,-11.2399990E-3,84.000006318E-3,,,,,-11.2399990E-3,2.83999991,
,,,-11.2299994E-3,84.000006318E-3,,,,,-11.2299994E-3,2.83999991,
,,,-11.2199988E-3,84.000006318E-3,,,,,-11.2199988E-3,2.83999991,
,,,-11.2099992E-3,84.000006318E-3,,,,,-11.2099992E-3,2.83999991,
,,,-11.1999996E-3,80.000005662E-3,,,,,-11.1999996E-3,2.83999991,
,,,-11.1899991E-3,80.000005662E-3,,,,,-11.1899991E-3,2.79999995,
,,,-11.1799994E-3,80.000005662E-3,,,,,-11.1799994E-3,2.79999995,
,,,-11.1699989E-3,80.000005662E-3,,,,,-11.1699989E-3,2.79999995,
,,,-11.1599993E-3,76.000005007E-3,,,,,-11.1599993E-3,2.83999991,
,,,-11.1499997E-3,76.000005007E-3,,,,,-11.1499997E-3,2.79999995,
,,,-11.1399991E-3,76.000005007E-3,,,,,-11.1399991E-3,2.79999995,
,,,-11.1299995E-3,72.000004351E-3,,,,,-11.1299995E-3,2.79999995,
,,,-11.1199990E-3,72.000004351E-3,,,,,-11.1199990E-3,2.79999995,
,,,-11.1099994E-3,72.000004351E-3,,,,,-11.1099994E-3,2.79999995,
,,,-11.0999988E-3,72.000004351E-3,,,,,-11.0999988E-3,2.79999995,
,,,-11.0899992E-3,72.000004351E-3,,,,,-11.0899992E-3,2.75999999,
,,,-11.0799996E-3,72.000004351E-3,,,,,-11.0799996E-3,2.75999999,
,,,-11.0699991E-3,72.000004351E-3,,,,,-11.0699991E-3,2.75999999,
,,,-11.0599995E-3,68.000003695E-3,,,,,-11.0599995E-3,2.75999999,
,,,-11.0499989E-3,68.000003695E-3,,,,,-11.0499989E-3,2.75999999,
,,,-11.0399993E-3,68.000003695E-3,,,,,-11.0399993E-3,2.75999999,
,,,-11.0299997E-3,68.000003695E-3,,,,,-11.0299997E-3,2.75999999,
,,,-11.0199992E-3,68.000003695E-3,,,,,-11.0199992E-3,2.75999999,
,,,-11.0099996E-3,68.000003695E-3,,,,,-11.0099996E-3,2.75999999,
,,,-10.9999990E-3,64.000003040E-3,,,,,-10.9999990E-3,2.75999999,
,,,-10.9899994E-3,64.000003040E-3,,,,,-10.9899994E-3,2.75999999,
,,,-10.9799989E-3,64.000003040E-3,,,,,-10.9799989E-3,2.75999999,
,,,-10.9699992E-3,68.000003695E-3,,,,,-10.9699992E-3,2.75999999,
,,,-10.9599996E-3,60.000002384E-3,,,,,-10.9599996E-3,2.75999999,
,,,-10.9499991E-3,64.000003040E-3,,,,,-10.9499991E-3,2.72000003,
,,,-10.9399995E-3,60.000002384E-3,,,,,-10.9399995E-3,2.75999999,
,,,-10.9299989E-3,60.000002384E-3,,,,,-10.9299989E-3,2.72000003,
,,,-10.9199993E-3,60.000002384E-3,,,,,-10.9199993E-3,2.72000003,
,,,-10.9099997E-3,56.000001729E-3,,,,,-10.9099997E-3,2.72000003,
,,,-10.8999992E-3,56.000001729E-3,,,,,-10.8999992E-3,2.6799998,
,,,-10.8899996E-3,56.000001729E-3,,,,,-10.8899996E-3,2.6799998,
,,,-10.8799990E-3,56.000001729E-3,,,,,-10.8799990E-3,2.6799998,
,,,-10.8699994E-3,56.000001729E-3,,,,,-10.8699994E-3,2.6799998,
,,,-10.8599989E-3,52.00000107E-3,,,,,-10.8599989E-3,2.72000003,
,,,-10.8499993E-3,56.000001729E-3,,,,,-10.8499993E-3,2.6799998,
,,,-10.8399997E-3,56.000001729E-3,,,,,-10.8399997E-3,2.6799998,
,,,-10.8299991E-3,52.00000107E-3,,,,,-10.8299991E-3,2.6799998,
,,,-10.8199995E-3,52.00000107E-3,,,,,-10.8199995E-3,2.6799998,
,,,-10.8099990E-3,52.00000107E-3,,,,,-10.8099990E-3,2.6399999,
,,,-10.7999993E-3,48.00000042E-3,,,,,-10.7999993E-3,2.6399999,
,,,-10.7899997E-3,48.00000042E-3,,,,,-10.7899997E-3,2.6799998,
,,,-10.7799992E-3,44.00000349E-3,,,,,-10.7799992E-3,2.6399999,
,,,-10.7699996E-3,48.00000042E-3,,,,,-10.7699996E-3,2.6399999,
,,,-10.7599990E-3,44.00000349E-3,,,,,-10.7599990E-3,2.6399999,
,,,-10.7499994E-3,48.00000042E-3,,,,,-10.7499994E-3,2.6399999,
,,,-10.7399989E-3,44.00000349E-3,,,,,-10.7399989E-3,2.6399999,
,,,-10.7299993E-3,44.00000349E-3,,,,,-10.7299993E-3,2.6399999,
,,,-10.7199997E-3,44.00000349E-3,,,,,-10.7199997E-3,2.6399999,
,,,-10.7099991E-3,40.00000283E-3,,,,,-10.7099991E-3,2.6399999,
,,,-10.6999995E-3,40.00000283E-3,,,,,-10.6999995E-3,2.5999999,
,,,-10.6899990E-3,40.00000283E-3,,,,,-10.6899990E-3,2.5999999,
,,,-10.6799994E-3,40.00000283E-3,,,,,-10.6799994E-3,2.5999999,
,,,-10.6699998E-3,36.00000218E-3,,,,,-10.6699998E-3,2.5999999,
,,,-10.6599992E-3,36.00000218E-3,,,,,-10.6599992E-3,2.5999999,
,,,-10.6499996E-3,40.00000283E-3,,,,,-10.6499996E-3,2.5999999,
,,,-10.6399991E-3,36.00000218E-3,,,,,-10.6399991E-3,2.5999999,
,,,-10.6299995E-3,36.00000218E-3,,,,,-10.6299995E-3,2.5599999,
,,,-10.6199989E-3,36.00000218E-3,,,,,-10.6199989E-3,2.5599999,
,,,-10.6099993E-3,32.00000152E-3,,,,,-10.6099993E-3,2.5599999,
,,,-10.5999997E-3,32.00000152E-3,,,,,-10.5999997E-3,2.5599999,
,,,-10.5899991E-3,32.00000152E-3,,,,,-10.5899991E-3,2.5599999,
,,,-10.5799995E-3,28.00000086E-3,,,,,-10.5799995E-3,2.5599999,
,,,-10.5699990E-3,32.00000152E-3,,,,,-10.5699990E-3,2.5599999,
,,,-10.5599994E-3,32.00000152E-3,,,,,-10.5599994E-3,2.5599999,
,,,-10.5499988E-3,28.00000086E-3,,,,,-10.5499988E-3,2.5200000,
,,,-10.5399992E-3,32.00000152E-3,,,,,-10.5399992E-3,2.5200000,
,,,-10.5299996E-3,28.00000086E-3,,,,,-10.5299996E-3,2.5200000,
,,,-10.5199991E-3,28.00000086E-3,,,,,-10.5199991E-3,2.5200000,
,,,-10.5099995E-3,28.00000086E-3,,,,,-10.5099995E-3,2.4800000,
,,,-10.4999989E-3,28.00000086E-3,,,,,-10.4999989E-3,2.4800000,
,,,-10.4899993E-3,24.00000021E-3,,,,,-10.4899993E-3,2.4800000,
,,,-10.4799997E-3,20.0000014E-3,,,,,-10.4799997E-3,2.5200000,
,,,-10.4699992E-3,24.00000021E-3,,,,,-10.4699992E-3,2.5200000,
,,,-10.4599996E-3,24.00000021E-3,,,,,-10.4599996E-3,2.4800000,
,,,-10.4499990E-3,24.00000021E-3,,,,,-10.4499990E-3,2.4800000,
,,,-10.4399994E-3,20.0000014E-3,,,,,-10.4399994E-3,2.4800000,
,,,-10.4299989E-3,20.0000014E-3,,,,,-10.4299989E-3,2.4800000,
,,,-10.4199992E-3,20.0000014E-3,,,,,-10.4199992E-3,2.4800000,
,,,-10.4099996E-3,20.0000014E-3,,,,,-10.4099996E-3,2.4400001,
,,,-10.3999991E-3,16.0000008E-3,,,,,-10.3999991E-3,2.4800000,
,,,-10.3899995E-3,20.0000014E-3,,,,,-10.3899995E-3,2.4400001,
,,,-10.3799989E-3,16.0000008E-3,,,,,-10.3799989E-3,2.4400001,
,,,-10.3699993E-3,16.0000008E-3,,,,,-10.3699993E-3,2.4400001,
,,,-10.3599997E-3,16.0000008E-3,,,,,-10.3599997E-3,2.4400001,
,,,-10.3499992E-3,16.0000008E-3,,,,,-10.3499992E-3,2.3999999,
,,,-10.3399996E-3,16.0000008E-3,,,,,-10.3399996E-3,2.3999999,
,,,-10.3299990E-3,16.0000008E-3,,,,,-10.3299990E-3,2.3999999,
,,,-10.3199994E-3,12.0000001E-3,,,,,-10.3199994E-3,2.3999999,
,,,-10.3099989E-3,12.0000001E-3,,,,,-10.3099989E-3,2.3999999,
,,,-10.2999993E-3,12.0000001E-3,,,,,-10.2999993E-3,2.3599999,
,,,-10.2899997E-3,8.000000380E-3,,,,,-10.2899997E-3,2.3599999,
,,,-10.2799991E-3,8.000000380E-3,,,,,-10.2799991E-3,2.3999999,
,,,-10.2699995E-3,8.000000380E-3,,,,,-10.2699995E-3,2.3599999,
,,,-10.2599990E-3,8.000000380E-3,,,,,-10.2599990E-3,2.3999999,
,,,-10.2499994E-3,8.000000380E-3,,,,,-10.2499994E-3,2.3599999,
,,,-10.2399997E-3,4.00000019E-3,,,,,-10.2399997E-3,2.3599999,
,,,-10.2299992E-3,4.00000019E-3,,,,,-10.2299992E-3,2.3599999,
,,,-10.2199996E-3,8.000000380E-3,,,,,-10.2199996E-3,2.3599999,
,,,-10.2099990E-3,4.00000019E-3,,,,,-10.2099990E-3,2.3599999,
,,,-10.1999994E-3,4.00000019E-3,,,,,-10.1999994E-3,2.3199999,
,,,-10.1899989E-3,8.000000380E-3,,,,,-10.1899989E-3,2.3199999,
,,,-10.1799993E-3,0.0,,,,,-10.1799993E-3,2.3199999,
,,,-10.1699997E-3,0.0,,,,,-10.1699997E-3,2.3199999,
,,,-10.1599991E-3,0.0,,,,,-10.1599991E-3,2.3199999,
,,,-10.1499995E-3,0.0,,,,,-10.1499995E-3,2.3199999,
,,,-10.1399990E-3,0.0,,,,,-10.1399990E-3,2.3199999,
,,,-10.1299994E-3,-4.00000019E-3,,,,,-10.1299994E-3,2.2800000,
,,,-10.1199998E-3,0.0,,,,,-10.1199998E-3,2.2800000,
,,,-10.1099992E-3,-8.000000380E-3,,,,,-10.1099992E-3,2.2800000,
,,,-10.0999996E-3,-8.000000380E-3,,,,,-10.0999996E-3,2.2800000,
,,,-10.0899991E-3,-4.00000019E-3,,,,,-10.0899991E-3,2.2400000,
,,,-10.0799995E-3,-8.000000380E-3,,,,,-10.0799995E-3,2.2400000,
,,,-10.0699989E-3,-8.000000380E-3,,,,,-10.0699989E-3,2.2400000,
,,,-10.0599993E-3,-8.000000380E-3,,,,,-10.0599993E-3,2.2400000,
,,,-10.0499997E-3,-8.000000380E-3,,,,,-10.0499997E-3,2.2400000,
,,,-10.0399991E-3,-8.000000380E-3,,,,,-10.0399991E-3,2.2400000,
,,,-10.0299995E-3,-16.0000008E-3,,,,,-10.0299995E-3,2.2400000,
,,,-10.0199990E-3,-8.000000380E-3,,,,,-10.0199990E-3,2.2000000,
,,,-10.0099994E-3,-16.0000008E-3,,,,,-10.0099994E-3,2.2000000,
,,,-9.999999776E-3,-12.0000001E-3,,,,,-9.999999776E-3,2.2000000,
,,,-9.989999235E-3,-16.0000008E-3,,,,,-9.989999235E-3,2.2000000,
,,,-9.979999624E-3,-12.0000001E-3,,,,,-9.979999624E-3,2.2000000,
,,,-9.969999082E-3,-12.0000001E-3,,,,,-9.969999082E-3,2.1599998,
,,,-9.959999472E-3,-20.0000014E-3,,,,,-9.959999472E-3,2.1599998,
,,,-9.949998930E-3,-16.0000008E-3,,,,,-9.949998930E-3,2.1599998,
,,,-9.939999320E-3,-20.0000014E-3,,,,,-9.939999320E-3,2.1599998,
,,,-9.929999709E-3,-20.0000014E-3,,,,,-9.929999709E-3,2.1199999,
,,,-9.919999167E-3,-20.0000014E-3,,,,,-9.919999167E-3,2.1599998,
,,,-9.909999557E-3,-20.0000014E-3,,,,,-9.909999557E-3,2.1199999,
,,,-9.899999015E-3,-20.0000014E-3,,,,,-9.899999015E-3,2.1199999,
,,,-9.889999405E-3,-20.0000014E-3,,,,,-9.889999405E-3,2.1199999,
,,,-9.879998863E-3,-24.00000021E-3,,,,,-9.879998863E-3,2.1199999,
,,,-9.869999252E-3,-20.0000014E-3,,,,,-9.869999252E-3,2.0799999,
,,,-9.859999642E-3,-24.00000021E-3,,,,,-9.859999642E-3,2.0799999,
,,,-9.849999100E-3,-28.00000086E-3,,,,,-9.849999100E-3,2.0799999,
,,,-9.839999489E-3,-28.00000086E-3,,,,,-9.839999489E-3,2.0799999,
,,,-9.829998948E-3,-24.00000021E-3,,,,,-9.829998948E-3,2.0400000,
,,,-9.819999337E-3,-24.00000021E-3,,,,,-9.819999337E-3,2.0400000,
,,,-9.809999727E-3,-28.00000086E-3,,,,,-9.809999727E-3,2.0400000,
,,,-9.799999185E-3,-28.00000086E-3,,,,,-9.799999185E-3,2.0400000,
,,,-9.789999574E-3,-28.00000086E-3,,,,,-9.789999574E-3,2.0400000,
,,,-9.779999033E-3,-28.00000086E-3,,,,,-9.779999033E-3,2.0400000,
,,,-9.769999422E-3,-32.00000152E-3,,,,,-9.769999422E-3,2.0000000,
,,,-9.759998880E-3,-32.00000152E-3,,,,,-9.759998880E-3,2.0000000,
,,,-9.749999270E-3,-32.00000152E-3,,,,,-9.749999270E-3,2.0000000,
,,,-9.739999659E-3,-32.00000152E-3,,,,,-9.739999659E-3,1.9599999,
,,,-9.729999118E-3,-36.00000218E-3,,,,,-9.729999118E-3,1.9599999,
,,,-9.719999507E-3,-36.00000218E-3,,,,,-9.719999507E-3,1.9599999,
,,,-9.709998965E-3,-36.00000218E-3,,,,,-9.709998965E-3,1.9599999,
,,,-9.699999355E-3,-36.00000218E-3,,,,,-9.699999355E-3,1.9599999,
,,,-9.689999744E-3,-36.00000218E-3,,,,,-9.689999744E-3,1.9200000,
,,,-9.679999202E-3,-40.00000283E-3,,,,,-9.679999202E-3,1.9200000,
,,,-9.669999592E-3,-36.00000218E-3,,,,,-9.669999592E-3,1.9200000,
,,,-9.659999050E-3,-36.00000218E-3,,,,,-9.659999050E-3,1.9200000,
,,,-9.649999440E-3,-36.00000218E-3,,,,,-9.649999440E-3,1.9200000,
,,,-9.639998898E-3,-36.00000218E-3,,,,,-9.639998898E-3,1.8800000,
,,,-9.629999287E-3,-40.00000283E-3,,,,,-9.629999287E-3,1.9200000,
,,,-9.619999677E-3,-40.00000283E-3,,,,,-9.619999677E-3,1.8800000,
,,,-9.609999135E-3,-40.00000283E-3,,,,,-9.609999135E-3,1.8800000,
,,,-9.599999525E-3,-40.00000283E-3,,,,,-9.599999525E-3,1.9200000,
,,,-9.589998983E-3,-44.00000349E-3,,,,,-9.589998983E-3,1.8800000,
,,,-9.579999372E-3,-44.00000349E-3,,,,,-9.579999372E-3,1.8399999,
,,,-9.569999762E-3,-44.00000349E-3,,,,,-9.569999762E-3,1.8000000,
,,,-9.559999220E-3,-44.00000349E-3,,,,,-9.559999220E-3,1.8000000,
,,,-9.549999610E-3,-44.00000349E-3,,,,,-9.549999610E-3,1.8000000,
,,,-9.539999068E-3,-48.00000042E-3,,,,,-9.539999068E-3,1.8000000,
,,,-9.529999457E-3,-48.00000042E-3,,,,,-9.529999457E-3,1.8000000,
,,,-9.519998915E-3,-48.00000042E-3,,,,,-9.519998915E-3,1.8000000,
,,,-9.509999305E-3,-48.00000042E-3,,,,,-9.509999305E-3,1.7600000,
,,,-9.499999695E-3,-48.00000042E-3,,,,,-9.499999695E-3,1.8000000,
,,,-9.489999153E-3,-48.00000042E-3,,,,,-9.489999153E-3,1.7600000,
,,,-9.479999542E-3,-48.00000042E-3,,,,,-9.479999542E-3,1.7600000,
