magnetism/heshel vs resistance/50000.csv

Record Length,2500,Points,-25.01999959E-3,-3.75999999,,Record Length,2500,Points,-25.01999959E-3,-12.3999994E-3,
Sample Interval,19.9999995E-6,s,-25.00000037E-3,-3.75999999,,Sample Interval,19.9999995E-6,s,-25.00000037E-3,-12.0000001E-3,
Trigger Point,1.2510001E3,Samples,-24.97999929E-3,-3.75999999,,Trigger Point,1.2510001E3,Samples,-24.97999929E-3,-12.0000001E-3,
,,,-24.96000007E-3,-3.75999999,,,,,-24.96000007E-3,-10.7999993E-3,
,,,-24.93999898E-3,-3.75999999,,,,,-24.93999898E-3,-11.1999996E-3,
,,,-24.91999976E-3,-3.75999999,,,,,-24.91999976E-3,-13.1999999E-3,
Source,CH1,,-24.89999868E-3,-3.75999999,,Source,CH2,,-24.89999868E-3,-12.3999994E-3,
Vertical Units,Volts,,-24.87999946E-3,-3.75999999,,Vertical Units,Volts,,-24.87999946E-3,-12.3999994E-3,
Vertical Scale,2.0000000,,-24.86000024E-3,-3.75999999,,Vertical Scale,9.999999747E-3,,-24.86000024E-3,-10.7999993E-3,
Vertical Offset,0,,-24.83999915E-3,-3.75999999,,Vertical Offset,0,,-24.83999915E-3,-11.1999996E-3,
Horizontal Units,s,,-24.81999993E-3,-3.75999999,,Horizontal Units,s,,-24.81999993E-3,-11.5999999E-3,
Horizontal Scale,4.99999987E-3,,-24.79999885E-3,-3.75999999,,Horizontal Scale,4.99999987E-3,,-24.79999885E-3,-13.1999999E-3,
Pt Fmt,Y,,-24.77999963E-3,-3.75999999,,Pt Fmt,Y,,-24.77999963E-3,-13.1999999E-3,
Yzero,-80.000000000E-3,,-24.76000041E-3,-3.75999999,,Yzero,80.000000000E-3,,-24.76000041E-3,-10.4000000E-3,
Probe Atten,1.000000,,-24.73999932E-3,-3.75999999,,Probe Atten,1.000000,,-24.73999932E-3,-9.999999776E-3,
,,,-24.72000010E-3,-3.75999999,,,,,-24.72000010E-3,-12.0000001E-3,
Note,TBS 1052B-EDU - 18:17:55   21/05/2025,,-24.69999902E-3,-3.75999999,,Note,TBS 1052B-EDU - 18:17:55   21/05/2025,,-24.69999902E-3,-13.1999999E-3,
,,,-24.67999980E-3,-3.75999999,,,,,-24.67999980E-3,-13.1999999E-3,
,,,-24.65999871E-3,-3.75999999,,,,,-24.65999871E-3,-11.5999999E-3,
,,,-24.63999949E-3,-3.75999999,,,,,-24.63999949E-3,-12.7999997E-3,
,,,-24.62000027E-3,-3.75999999,,,,,-24.62000027E-3,-10.7999993E-3,
,,,-24.59999919E-3,-3.75999999,,,,,-24.59999919E-3,-13.1999999E-3,
,,,-24.57999997E-3,-3.75999999,,,,,-24.57999997E-3,-12.7999997E-3,
,,,-24.55999888E-3,-3.75999999,,,,,-24.55999888E-3,-11.5999999E-3,
,,,-24.53999966E-3,-3.75999999,,,,,-24.53999966E-3,-12.7999997E-3,
,,,-24.52000044E-3,-3.75999999,,,,,-24.52000044E-3,-11.5999999E-3,
,,,-24.49999936E-3,-3.75999999,,,,,-24.49999936E-3,-12.7999997E-3,
,,,-24.48000014E-3,-3.75999999,,,,,-24.48000014E-3,-11.1999996E-3,
,,,-24.45999905E-3,-3.75999999,,,,,-24.45999905E-3,-12.7999997E-3,
,,,-24.43999983E-3,-3.75999999,,,,,-24.43999983E-3,-12.7999997E-3,
,,,-24.41999875E-3,-3.75999999,,,,,-24.41999875E-3,-11.1999996E-3,
,,,-24.39999953E-3,-3.75999999,,,,,-24.39999953E-3,-10.7999993E-3,
,,,-24.38000031E-3,-3.75999999,,,,,-24.38000031E-3,-13.5999992E-3,
,,,-24.35999922E-3,-3.75999999,,,,,-24.35999922E-3,-12.7999997E-3,
,,,-24.34000000E-3,-3.75999999,,,,,-24.34000000E-3,-13.1999999E-3,
,,,-24.31999892E-3,-3.75999999,,,,,-24.31999892E-3,-12.3999994E-3,
,,,-24.29999970E-3,-3.75999999,,,,,-24.29999970E-3,-12.0000001E-3,
,,,-24.28000048E-3,-3.75999999,,,,,-24.28000048E-3,-12.7999997E-3,
,,,-24.25999939E-3,-3.75999999,,,,,-24.25999939E-3,-13.9999995E-3,
,,,-24.24000017E-3,-3.67999983,,,,,-24.24000017E-3,-12.7999997E-3,
,,,-24.21999909E-3,-3.67999983,,,,,-24.21999909E-3,-13.1999999E-3,
,,,-24.19999987E-3,-3.75999999,,,,,-24.19999987E-3,-12.3999994E-3,
,,,-24.17999879E-3,-3.67999983,,,,,-24.17999879E-3,-11.1999996E-3,
,,,-24.15999956E-3,-3.75999999,,,,,-24.15999956E-3,-12.3999994E-3,
,,,-24.14000034E-3,-3.75999999,,,,,-24.14000034E-3,-13.1999999E-3,
,,,-24.11999926E-3,-3.75999999,,,,,-24.11999926E-3,-12.0000001E-3,
,,,-24.10000004E-3,-3.67999983,,,,,-24.10000004E-3,-12.7999997E-3,
,,,-24.07999896E-3,-3.67999983,,,,,-24.07999896E-3,-10.7999993E-3,
,,,-24.05999973E-3,-3.67999983,,,,,-24.05999973E-3,-10.4000000E-3,
,,,-24.04000051E-3,-3.67999983,,,,,-24.04000051E-3,-12.3999994E-3,
,,,-24.01999943E-3,-3.75999999,,,,,-24.01999943E-3,-13.1999999E-3,
,,,-24.00000021E-3,-3.67999983,,,,,-24.00000021E-3,-13.1999999E-3,
,,,-23.97999913E-3,-3.67999983,,,,,-23.97999913E-3,-12.0000001E-3,
,,,-23.95999990E-3,-3.67999983,,,,,-23.95999990E-3,-12.3999994E-3,
,,,-23.93999882E-3,-3.67999983,,,,,-23.93999882E-3,-12.3999994E-3,
,,,-23.91999960E-3,-3.67999983,,,,,-23.91999960E-3,-13.9999995E-3,
,,,-23.90000038E-3,-3.59999990,,,,,-23.90000038E-3,-12.3999994E-3,
,,,-23.87999929E-3,-3.59999990,,,,,-23.87999929E-3,-12.3999994E-3,
,,,-23.86000007E-3,-3.59999990,,,,,-23.86000007E-3,-10.4000000E-3,
,,,-23.83999899E-3,-3.59999990,,,,,-23.83999899E-3,-11.5999999E-3,
,,,-23.81999977E-3,-3.59999990,,,,,-23.81999977E-3,-9.999999776E-3,
,,,-23.80000055E-3,-3.59999990,,,,,-23.80000055E-3,-11.5999999E-3,
,,,-23.77999946E-3,-3.59999990,,,,,-23.77999946E-3,-13.5999992E-3,
,,,-23.76000024E-3,-3.51999998,,,,,-23.76000024E-3,-12.0000001E-3,
,,,-23.73999916E-3,-3.51999998,,,,,-23.73999916E-3,-12.3999994E-3,
,,,-23.71999994E-3,-3.51999998,,,,,-23.71999994E-3,-11.5999999E-3,
,,,-23.69999886E-3,-3.51999998,,,,,-23.69999886E-3,-11.1999996E-3,
,,,-23.67999963E-3,-3.51999998,,,,,-23.67999963E-3,-11.5999999E-3,
,,,-23.66000041E-3,-3.51999998,,,,,-23.66000041E-3,-12.3999994E-3,
,,,-23.63999933E-3,-3.51999998,,,,,-23.63999933E-3,-13.5999992E-3,
,,,-23.62000011E-3,-3.43999982,,,,,-23.62000011E-3,-12.0000001E-3,
,,,-23.59999903E-3,-3.43999982,,,,,-23.59999903E-3,-10.7999993E-3,
,,,-23.57999980E-3,-3.43999982,,,,,-23.57999980E-3,-11.1999996E-3,
,,,-23.55999872E-3,-3.43999982,,,,,-23.55999872E-3,-12.0000001E-3,
,,,-23.53999950E-3,-3.43999982,,,,,-23.53999950E-3,-12.0000001E-3,
,,,-23.52000028E-3,-3.35999990,,,,,-23.52000028E-3,-12.7999997E-3,
,,,-23.49999920E-3,-3.43999982,,,,,-23.49999920E-3,-13.1999999E-3,
,,,-23.47999997E-3,-3.35999990,,,,,-23.47999997E-3,-11.5999999E-3,
,,,-23.45999889E-3,-3.35999990,,,,,-23.45999889E-3,-10.7999993E-3,
,,,-23.43999967E-3,-3.35999990,,,,,-23.43999967E-3,-11.5999999E-3,
,,,-23.42000045E-3,-3.35999990,,,,,-23.42000045E-3,-11.1999996E-3,
,,,-23.39999937E-3,-3.35999990,,,,,-23.39999937E-3,-12.7999997E-3,
,,,-23.38000014E-3,-3.35999990,,,,,-23.38000014E-3,-12.7999997E-3,
,,,-23.35999906E-3,-3.27999997,,,,,-23.35999906E-3,-13.1999999E-3,
,,,-23.33999984E-3,-3.35999990,,,,,-23.33999984E-3,-10.4000000E-3,
,,,-23.31999876E-3,-3.27999997,,,,,-23.31999876E-3,-10.7999993E-3,
,,,-23.29999954E-3,-3.27999997,,,,,-23.29999954E-3,-11.5999999E-3,
,,,-23.28000031E-3,-3.19999981,,,,,-23.28000031E-3,-12.3999994E-3,
,,,-23.25999923E-3,-3.27999997,,,,,-23.25999923E-3,-13.1999999E-3,
,,,-23.24000001E-3,-3.27999997,,,,,-23.24000001E-3,-12.7999997E-3,
,,,-23.21999893E-3,-3.19999981,,,,,-23.21999893E-3,-11.5999999E-3,
,,,-23.19999970E-3,-3.19999981,,,,,-23.19999970E-3,-10.7999993E-3,
,,,-23.18000048E-3,-3.19999981,,,,,-23.18000048E-3,-10.7999993E-3,
,,,-23.15999940E-3,-3.11999989,,,,,-23.15999940E-3,-13.1999999E-3,
,,,-23.14000018E-3,-3.11999989,,,,,-23.14000018E-3,-11.1999996E-3,
,,,-23.11999910E-3,-3.11999989,,,,,-23.11999910E-3,-12.3999994E-3,
,,,-23.09999987E-3,-3.11999989,,,,,-23.09999987E-3,-12.3999994E-3,
,,,-23.07999879E-3,-3.03999996,,,,,-23.07999879E-3,-11.5999999E-3,
,,,-23.05999957E-3,-3.11999989,,,,,-23.05999957E-3,-10.4000000E-3,
,,,-23.04000035E-3,-3.03999996,,,,,-23.04000035E-3,-10.4000000E-3,
,,,-23.01999927E-3,-3.03999996,,,,,-23.01999927E-3,-12.3999994E-3,
,,,-23.00000004E-3,-3.03999996,,,,,-23.00000004E-3,-13.1999999E-3,
,,,-22.97999896E-3,-3.03999996,,,,,-22.97999896E-3,-12.3999994E-3,
,,,-22.95999974E-3,-2.96000004,,,,,-22.95999974E-3,-9.999999776E-3,
,,,-22.94000052E-3,-2.96000004,,,,,-22.94000052E-3,-10.7999993E-3,
,,,-22.91999944E-3,-2.96000004,,,,,-22.91999944E-3,-11.5999999E-3,
,,,-22.90000021E-3,-2.96000004,,,,,-22.90000021E-3,-11.5999999E-3,
,,,-22.87999913E-3,-2.87999988,,,,,-22.87999913E-3,-10.7999993E-3,
,,,-22.85999991E-3,-2.87999988,,,,,-22.85999991E-3,-12.3999994E-3,
,,,-22.83999883E-3,-2.79999995,,,,,-22.83999883E-3,-11.5999999E-3,
,,,-22.81999961E-3,-2.79999995,,,,,-22.81999961E-3,-9.999999776E-3,
,,,-22.80000038E-3,-2.79999995,,,,,-22.80000038E-3,-9.999999776E-3,
,,,-22.77999930E-3,-2.79999995,,,,,-22.77999930E-3,-9.599999525E-3,
,,,-22.76000008E-3,-2.72000003,,,,,-22.76000008E-3,-10.4000000E-3,
,,,-22.73999900E-3,-2.72000003,,,,,-22.73999900E-3,-11.5999999E-3,
,,,-22.71999978E-3,-2.72000003,,,,,-22.71999978E-3,-11.5999999E-3,
,,,-22.70000055E-3,-2.6399999,,,,,-22.70000055E-3,-10.7999993E-3,
,,,-22.67999947E-3,-2.72000003,,,,,-22.67999947E-3,-10.4000000E-3,
,,,-22.66000025E-3,-2.6399999,,,,,-22.66000025E-3,-9.599999525E-3,
,,,-22.63999917E-3,-2.6399999,,,,,-22.63999917E-3,-10.4000000E-3,
,,,-22.61999995E-3,-2.6399999,,,,,-22.61999995E-3,-10.4000000E-3,
,,,-22.59999886E-3,-2.6399999,,,,,-22.59999886E-3,-12.0000001E-3,
,,,-22.57999964E-3,-2.5599999,,,,,-22.57999964E-3,-10.4000000E-3,
,,,-22.56000042E-3,-2.5599999,,,,,-22.56000042E-3,-11.1999996E-3,
,,,-22.53999934E-3,-2.5599999,,,,,-22.53999934E-3,-9.599999525E-3,
,,,-22.52000012E-3,-2.4800000,,,,,-22.52000012E-3,-10.7999993E-3,
,,,-22.49999903E-3,-2.5599999,,,,,-22.49999903E-3,-12.0000001E-3,
,,,-22.47999981E-3,-2.4800000,,,,,-22.47999981E-3,-11.1999996E-3,
,,,-22.45999873E-3,-2.4800000,,,,,-22.45999873E-3,-10.4000000E-3,
,,,-22.43999951E-3,-2.4800000,,,,,-22.43999951E-3,-10.4000000E-3,
,,,-22.42000028E-3,-2.4800000,,,,,-22.42000028E-3,-10.4000000E-3,
,,,-22.39999920E-3,-2.4800000,,,,,-22.39999920E-3,-9.200000204E-3,
,,,-22.37999998E-3,-2.3999999,,,,,-22.37999998E-3,-9.999999776E-3,
,,,-22.35999890E-3,-2.3999999,,,,,-22.35999890E-3,-9.999999776E-3,
,,,-22.33999968E-3,-2.3999999,,,,,-22.33999968E-3,-11.1999996E-3,
,,,-22.32000045E-3,-2.3999999,,,,,-22.32000045E-3,-11.5999999E-3,
,,,-22.29999937E-3,-2.3999999,,,,,-22.29999937E-3,-9.200000204E-3,
,,,-22.28000015E-3,-2.3199999,,,,,-22.28000015E-3,-8.799999952E-3,
,,,-22.25999907E-3,-2.3199999,,,,,-22.25999907E-3,-9.200000204E-3,
,,,-22.23999985E-3,-2.3199999,,,,,-22.23999985E-3,-9.599999525E-3,
,,,-22.21999876E-3,-2.3199999,,,,,-22.21999876E-3,-12.3999994E-3,
,,,-22.19999954E-3,-2.3199999,,,,,-22.19999954E-3,-12.0000001E-3,
,,,-22.18000032E-3,-2.2400000,,,,,-22.18000032E-3,-11.5999999E-3,
,,,-22.15999924E-3,-2.2400000,,,,,-22.15999924E-3,-10.4000000E-3,
,,,-22.14000002E-3,-2.2400000,,,,,-22.14000002E-3,-7.599999662E-3,
,,,-22.11999893E-3,-2.1599998,,,,,-22.11999893E-3,-9.599999525E-3,
,,,-22.09999971E-3,-2.1599998,,,,,-22.09999971E-3,-9.200000204E-3,
,,,-22.08000049E-3,-2.1599998,,,,,-22.08000049E-3,-12.3999994E-3,
,,,-22.05999941E-3,-2.1599998,,,,,-22.05999941E-3,-10.7999993E-3,
,,,-22.04000019E-3,-2.0799999,,,,,-22.04000019E-3,-6.79999962E-3,
,,,-22.01999910E-3,-2.0799999,,,,,-22.01999910E-3,-9.200000204E-3,
,,,-21.99999988E-3,-2.0799999,,,,,-21.99999988E-3,-9.200000204E-3,
,,,-21.97999880E-3,-2.1599998,,,,,-21.97999880E-3,-9.599999525E-3,
,,,-21.95999958E-3,-2.0799999,,,,,-21.95999958E-3,-12.0000001E-3,
,,,-21.94000036E-3,-2.0799999,,,,,-21.94000036E-3,-9.999999776E-3,
,,,-21.91999927E-3,-2.0000000,,,,,-21.91999927E-3,-9.999999776E-3,
,,,-21.90000005E-3,-2.0000000,,,,,-21.90000005E-3,-9.200000204E-3,
,,,-21.87999897E-3,-2.0000000,,,,,-21.87999897E-3,-8.399999700E-3,
,,,-21.85999975E-3,-2.0000000,,,,,-21.85999975E-3,-9.999999776E-3,
,,,-21.84000053E-3,-2.0000000,,,,,-21.84000053E-3,-9.599999525E-3,
,,,-21.81999944E-3,-1.9200000,,,,,-21.81999944E-3,-11.1999996E-3,
,,,-21.80000022E-3,-1.9200000,,,,,-21.80000022E-3,-9.599999525E-3,
,,,-21.77999914E-3,-1.8399999,,,,,-21.77999914E-3,-8.799999952E-3,
,,,-21.75999992E-3,-1.9200000,,,,,-21.75999992E-3,-9.999999776E-3,
,,,-21.73999883E-3,-1.8399999,,,,,-21.73999883E-3,-9.999999776E-3,
,,,-21.71999961E-3,-1.8399999,,,,,-21.71999961E-3,-10.4000000E-3,
,,,-21.70000039E-3,-1.8399999,,,,,-21.70000039E-3,-10.4000000E-3,
,,,-21.67999931E-3,-1.8399999,,,,,-21.67999931E-3,-10.4000000E-3,
,,,-21.66000009E-3,-1.8399999,,,,,-21.66000009E-3,-7.599999662E-3,
,,,-21.63999900E-3,-1.8399999,,,,,-21.63999900E-3,-8.799999952E-3,
,,,-21.61999978E-3,-1.8399999,,,,,-21.61999978E-3,-7.999999449E-3,
,,,-21.60000056E-3,-1.7600000,,,,,-21.60000056E-3,-9.999999776E-3,
,,,-21.57999948E-3,-1.7600000,,,,,-21.57999948E-3,-10.7999993E-3,
,,,-21.56000026E-3,-1.7600000,,,,,-21.56000026E-3,-9.200000204E-3,
,,,-21.53999917E-3,-1.7600000,,,,,-21.53999917E-3,-9.200000204E-3,
,,,-21.51999995E-3,-1.6799999,,,,,-21.51999995E-3,-7.999999449E-3,
,,,-21.49999887E-3,-1.6799999,,,,,-21.49999887E-3,-9.999999776E-3,
,,,-21.47999965E-3,-1.6799999,,,,,-21.47999965E-3,-8.799999952E-3,
,,,-21.46000043E-3,-1.5999999,,,,,-21.46000043E-3,-9.200000204E-3,
,,,-21.43999934E-3,-1.5999999,,,,,-21.43999934E-3,-9.200000204E-3,
,,,-21.42000012E-3,-1.5999999,,,,,-21.42000012E-3,-7.999999449E-3,
,,,-21.39999904E-3,-1.5999999,,,,,-21.39999904E-3,-8.399999700E-3,
,,,-21.37999982E-3,-1.5999999,,,,,-21.37999982E-3,-10.4000000E-3,
,,,-21.36000060E-3,-1.5200000,,,,,-21.36000060E-3,-8.799999952E-3,
,,,-21.33999951E-3,-1.4399999,,,,,-21.33999951E-3,-10.7999993E-3,
,,,-21.32000029E-3,-1.5200000,,,,,-21.32000029E-3,-9.599999525E-3,
,,,-21.29999921E-3,-1.4399999,,,,,-21.29999921E-3,-6.79999962E-3,
,,,-21.27999999E-3,-1.4399999,,,,,-21.27999999E-3,-8.399999700E-3,
,,,-21.25999890E-3,-1.3600000,,,,,-21.25999890E-3,-7.19999988E-3,
,,,-21.23999968E-3,-1.4399999,,,,,-21.23999968E-3,-8.799999952E-3,
,,,-21.22000046E-3,-1.3600000,,,,,-21.22000046E-3,-7.999999449E-3,
,,,-21.19999938E-3,-1.2800000,,,,,-21.19999938E-3,-8.399999700E-3,
,,,-21.18000016E-3,-1.3600000,,,,,-21.18000016E-3,-8.399999700E-3,
,,,-21.15999907E-3,-1.2800000,,,,,-21.15999907E-3,-7.999999449E-3,
,,,-21.13999985E-3,-1.2800000,,,,,-21.13999985E-3,-9.599999525E-3,
,,,-21.11999877E-3,-1.1999999,,,,,-21.11999877E-3,-8.399999700E-3,
,,,-21.09999955E-3,-1.2800000,,,,,-21.09999955E-3,-8.799999952E-3,
,,,-21.08000033E-3,-1.1999999,,,,,-21.08000033E-3,-7.599999662E-3,
,,,-21.05999924E-3,-1.1999999,,,,,-21.05999924E-3,-7.599999662E-3,
,,,-21.04000002E-3,-1.1999999,,,,,-21.04000002E-3,-7.19999988E-3,
,,,-21.01999894E-3,-1.1200000,,,,,-21.01999894E-3,-9.599999525E-3,
,,,-20.99999972E-3,-1.1200000,,,,,-20.99999972E-3,-8.399999700E-3,
,,,-20.98000050E-3,-1.1200000,,,,,-20.98000050E-3,-9.200000204E-3,
,,,-20.95999941E-3,-1.1200000,,,,,-20.95999941E-3,-6.39999984E-3,
,,,-20.94000019E-3,-1.1200000,,,,,-20.94000019E-3,-7.999999449E-3,
,,,-20.91999911E-3,-1.0400000,,,,,-20.91999911E-3,-6.39999984E-3,
,,,-20.89999989E-3,-1.0400000,,,,,-20.89999989E-3,-8.399999700E-3,
,,,-20.87999880E-3,-1.0400000,,,,,-20.87999880E-3,-8.399999700E-3,
,,,-20.85999958E-3,-1.0400000,,,,,-20.85999958E-3,-7.999999449E-3,
,,,-20.84000036E-3,-959.999978542E-3,,,,,-20.84000036E-3,-7.19999988E-3,
,,,-20.81999928E-3,-959.999978542E-3,,,,,-20.81999928E-3,-6.79999962E-3,
,,,-20.80000006E-3,-959.999978542E-3,,,,,-20.80000006E-3,-7.19999988E-3,
,,,-20.77999897E-3,-959.999978542E-3,,,,,-20.77999897E-3,-7.19999988E-3,
,,,-20.75999975E-3,-879.999995232E-3,,,,,-20.75999975E-3,-7.19999988E-3,
,,,-20.74000053E-3,-879.999995232E-3,,,,,-20.74000053E-3,-7.999999449E-3,
,,,-20.71999945E-3,-879.999995232E-3,,,,,-20.71999945E-3,-7.599999662E-3,
,,,-20.70000023E-3,-799.999952316E-3,,,,,-20.70000023E-3,-7.599999662E-3,
,,,-20.67999914E-3,-799.999952316E-3,,,,,-20.67999914E-3,-6.00000005E-3,
,,,-20.65999992E-3,-799.999952316E-3,,,,,-20.65999992E-3,-8.799999952E-3,
,,,-20.63999884E-3,-719.999969006E-3,,,,,-20.63999884E-3,-6.79999962E-3,
,,,-20.61999962E-3,-799.999952316E-3,,,,,-20.61999962E-3,-8.399999700E-3,
,,,-20.60000040E-3,-719.999969006E-3,,,,,-20.60000040E-3,-6.00000005E-3,
,,,-20.57999931E-3,-719.999969006E-3,,,,,-20.57999931E-3,-4.39999998E-3,
,,,-20.56000009E-3,-639.999985695E-3,,,,,-20.56000009E-3,-8.799999952E-3,
,,,-20.53999901E-3,-639.999985695E-3,,,,,-20.53999901E-3,-6.39999984E-3,
,,,-20.51999979E-3,-639.999985695E-3,,,,,-20.51999979E-3,-7.999999449E-3,
,,,-20.50000057E-3,-639.999985695E-3,,,,,-20.50000057E-3,-6.39999984E-3,
,,,-20.47999948E-3,-560.000002384E-3,,,,,-20.47999948E-3,-6.00000005E-3,
,,,-20.46000026E-3,-479.999989271E-3,,,,,-20.46000026E-3,-6.39999984E-3,
,,,-20.43999918E-3,-479.999989271E-3,,,,,-20.43999918E-3,-6.39999984E-3,
,,,-20.41999996E-3,-479.999989271E-3,,,,,-20.41999996E-3,-6.39999984E-3,
,,,-20.39999887E-3,-399.99997616E-3,,,,,-20.39999887E-3,-7.999999449E-3,
,,,-20.37999965E-3,-399.99997616E-3,,,,,-20.37999965E-3,-6.79999962E-3,
,,,-20.36000043E-3,-399.99997616E-3,,,,,-20.36000043E-3,-6.00000005E-3,
,,,-20.33999935E-3,-319.99999285E-3,,,,,-20.33999935E-3,-5.20000001E-3,
,,,-20.32000013E-3,-319.99999285E-3,,,,,-20.32000013E-3,-6.79999962E-3,
,,,-20.29999904E-3,-239.99999464E-3,,,,,-20.29999904E-3,-6.79999962E-3,
,,,-20.27999982E-3,-319.99999285E-3,,,,,-20.27999982E-3,-6.00000005E-3,
,,,-20.26000060E-3,-239.99999464E-3,,,,,-20.26000060E-3,-6.39999984E-3,
,,,-20.23999952E-3,-239.99999464E-3,,,,,-20.23999952E-3,-5.20000001E-3,
,,,-20.22000030E-3,-239.99999464E-3,,,,,-20.22000030E-3,-4.79999976E-3,
,,,-20.19999921E-3,-159.99999642E-3,,,,,-20.19999921E-3,-5.59999980E-3,
,,,-20.17999999E-3,-239.99999464E-3,,,,,-20.17999999E-3,-6.39999984E-3,
,,,-20.15999891E-3,-159.99999642E-3,,,,,-20.15999891E-3,-6.00000005E-3,
,,,-20.13999969E-3,-79.999998212E-3,,,,,-20.13999969E-3,-6.00000005E-3,
,,,-20.12000047E-3,-79.999998212E-3,,,,,-20.12000047E-3,-6.00000005E-3,
,,,-20.09999938E-3,-79.999998212E-3,,,,,-20.09999938E-3,-5.20000001E-3,
,,,-20.0800002E-3,0.0,,,,,-20.0800002E-3,-4.79999976E-3,
,,,-20.0599991E-3,0.0,,,,,-20.0599991E-3,-6.00000005E-3,
,,,-20.0399999E-3,0.0,,,,,-20.0399999E-3,-6.00000005E-3,
,,,-20.0200006E-3,0.0,,,,,-20.0200006E-3,-6.39999984E-3,
,,,-19.9999996E-3,79.999998212E-3,,,,,-19.9999996E-3,-5.59999980E-3,
,,,-19.9800003E-3,79.999998212E-3,,,,,-19.9800003E-3,-4.39999998E-3,
,,,-19.9599992E-3,159.99999642E-3,,,,,-19.9599992E-3,-3.59999994E-3,
,,,-19.9400000E-3,159.99999642E-3,,,,,-19.9400000E-3,-4.39999998E-3,
,,,-19.9199989E-3,159.99999642E-3,,,,,-19.9199989E-3,-3.59999994E-3,
,,,-19.8999997E-3,159.99999642E-3,,,,,-19.8999997E-3,-5.20000001E-3,
,,,-19.8800005E-3,239.99999464E-3,,,,,-19.8800005E-3,-5.59999980E-3,
,,,-19.8599994E-3,239.99999464E-3,,,,,-19.8599994E-3,-2.3999999E-3,
,,,-19.8400002E-3,239.99999464E-3,,,,,-19.8400002E-3,-2.79999990E-3,
,,,-19.8199991E-3,239.99999464E-3,,,,,-19.8199991E-3,-4.79999976E-3,
,,,-19.7999999E-3,319.99999285E-3,,,,,-19.7999999E-3,-3.19999992E-3,
,,,-19.7799988E-3,319.99999285E-3,,,,,-19.7799988E-3,-3.99999972E-3,
,,,-19.7599996E-3,399.99997616E-3,,,,,-19.7599996E-3,-3.99999972E-3,
,,,-19.7400004E-3,399.99997616E-3,,,,,-19.7400004E-3,-3.59999994E-3,
,,,-19.7199993E-3,399.99997616E-3,,,,,-19.7199993E-3,-3.99999972E-3,
,,,-19.7000001E-3,399.99997616E-3,,,,,-19.7000001E-3,-3.59999994E-3,
,,,-19.6799990E-3,479.999989271E-3,,,,,-19.6799990E-3,-2.3999999E-3,
,,,-19.6599998E-3,479.999989271E-3,,,,,-19.6599998E-3,-4.39999998E-3,
,,,-19.6400005E-3,560.000002384E-3,,,,,-19.6400005E-3,-6.39999984E-3,
,,,-19.6199995E-3,560.000002384E-3,,,,,-19.6199995E-3,-4.79999976E-3,
,,,-19.6000002E-3,639.999985695E-3,,,,,-19.6000002E-3,-1.9999999E-3,
,,,-19.5799991E-3,639.999985695E-3,,,,,-19.5799991E-3,-1.9999999E-3,
,,,-19.5599999E-3,639.999985695E-3,,,,,-19.5599999E-3,-1.9999999E-3,
,,,-19.5399988E-3,639.999985695E-3,,,,,-19.5399988E-3,-4.39999998E-3,
,,,-19.5199996E-3,639.999985695E-3,,,,,-19.5199996E-3,-4.79999976E-3,
,,,-19.5000004E-3,719.999969006E-3,,,,,-19.5000004E-3,-3.19999992E-3,
,,,-19.4799993E-3,719.999969006E-3,,,,,-19.4799993E-3,-3.19999992E-3,
,,,-19.4600001E-3,719.999969006E-3,,,,,-19.4600001E-3,-1.9999999E-3,
,,,-19.4399990E-3,799.999952316E-3,,,,,-19.4399990E-3,-3.19999992E-3,
,,,-19.4199998E-3,799.999952316E-3,,,,,-19.4199998E-3,-2.3999999E-3,
,,,-19.4000006E-3,879.999995232E-3,,,,,-19.4000006E-3,-2.79999990E-3,
,,,-19.3799995E-3,879.999995232E-3,,,,,-19.3799995E-3,-3.19999992E-3,
,,,-19.3600003E-3,959.999978542E-3,,,,,-19.3600003E-3,-2.3999999E-3,
,,,-19.3399992E-3,959.999978542E-3,,,,,-19.3399992E-3,-1.6000000E-3,
,,,-19.3200000E-3,959.999978542E-3,,,,,-19.3200000E-3,-1.1999999E-3,
