polarbears/bragg2/56.csv

Record Length,2500,Points,-49.99999702E-3,100.0000015E-3,
Sample Interval,39.99999899E-6,s,-49.95999858E-3,102.0000055E-3,
Trigger Point,1.2500000E3,Samples,-49.91999641E-3,102.0000055E-3,
,,,-49.87999797E-3,104.0000021E-3,
,,,-49.83999580E-3,102.0000055E-3,
,,,-49.79999736E-3,98.000004888E-3,
Source,CH1,,-49.75999519E-3,100.0000015E-3,
Vertical Units,Volts,,-49.71999675E-3,100.0000015E-3,
Vertical Scale,50.00000237E-3,,-49.67999831E-3,102.0000055E-3,
Vertical Offset,0,,-49.63999614E-3,102.0000055E-3,
Horizontal Units,s,,-49.59999770E-3,102.0000055E-3,
Horizontal Scale,9.999999747E-3,,-49.55999553E-3,104.0000021E-3,
Pt Fmt,Y,,-49.51999709E-3,100.0000015E-3,
Yzero,0.0,,-49.47999865E-3,102.0000055E-3,
Probe Atten,1.000000,,-49.43999648E-3,102.0000055E-3,
,,,-49.39999804E-3,100.0000015E-3,
Note,TDS 2001C - 17:15:24   2025-05-14,,-49.35999587E-3,102.0000055E-3,
,,,-49.31999743E-3,100.0000015E-3,
,,,-49.27999526E-3,104.0000021E-3,
,,,-49.23999682E-3,100.0000015E-3,
,,,-49.19999838E-3,100.0000015E-3,
,,,-49.15999621E-3,102.0000055E-3,
,,,-49.11999777E-3,100.0000015E-3,
,,,-49.07999560E-3,102.0000055E-3,
,,,-49.03999716E-3,100.0000015E-3,
,,,-48.99999872E-3,102.0000055E-3,
,,,-48.95999655E-3,100.0000015E-3,
,,,-48.91999811E-3,102.0000055E-3,
,,,-48.87999594E-3,100.0000015E-3,
,,,-48.83999750E-3,100.0000015E-3,
,,,-48.79999533E-3,98.000004888E-3,
,,,-48.75999689E-3,100.0000015E-3,
,,,-48.71999845E-3,100.0000015E-3,
,,,-48.67999628E-3,100.0000015E-3,
,,,-48.63999784E-3,98.000004888E-3,
,,,-48.59999567E-3,98.000004888E-3,
,,,-48.55999723E-3,98.000004888E-3,
,,,-48.51999879E-3,98.000004888E-3,
,,,-48.47999662E-3,98.000004888E-3,
,,,-48.43999818E-3,98.000004888E-3,
,,,-48.39999601E-3,98.000004888E-3,
,,,-48.35999757E-3,98.000004888E-3,
,,,-48.31999540E-3,98.000004888E-3,
,,,-48.27999696E-3,96.000000834E-3,
,,,-48.23999852E-3,96.000000834E-3,
,,,-48.19999635E-3,98.000004888E-3,
,,,-48.15999791E-3,96.000000834E-3,
,,,-48.11999574E-3,94.000004232E-3,
,,,-48.07999730E-3,96.000000834E-3,
,,,-48.03999886E-3,96.000000834E-3,
,,,-47.99999669E-3,94.000004232E-3,
,,,-47.95999825E-3,94.000004232E-3,
,,,-47.91999608E-3,94.000004232E-3,
,,,-47.87999764E-3,94.000004232E-3,
,,,-47.83999547E-3,94.000004232E-3,
,,,-47.79999703E-3,94.000004232E-3,
,,,-47.75999859E-3,92.000007629E-3,
,,,-47.71999642E-3,94.000004232E-3,
,,,-47.67999798E-3,92.000007629E-3,
,,,-47.63999581E-3,92.000007629E-3,
,,,-47.59999737E-3,92.000007629E-3,
,,,-47.55999893E-3,92.000007629E-3,
,,,-47.51999676E-3,92.000007629E-3,
,,,-47.47999832E-3,92.000007629E-3,
,,,-47.43999615E-3,90.000003576E-3,
,,,-47.39999771E-3,92.000007629E-3,
,,,-47.35999554E-3,90.000003576E-3,
,,,-47.31999710E-3,90.000003576E-3,
,,,-47.27999866E-3,90.000003576E-3,
,,,-47.23999649E-3,90.000003576E-3,
,,,-47.19999805E-3,90.000003576E-3,
,,,-47.15999588E-3,90.000003576E-3,
,,,-47.11999744E-3,90.000003576E-3,
,,,-47.07999527E-3,88.000006974E-3,
,,,-47.03999683E-3,90.000003576E-3,
,,,-46.99999839E-3,88.000006974E-3,
,,,-46.95999622E-3,90.000003576E-3,
,,,-46.91999778E-3,90.000003576E-3,
,,,-46.87999561E-3,90.000003576E-3,
,,,-46.83999717E-3,90.000003576E-3,
,,,-46.79999873E-3,88.000006974E-3,
,,,-46.75999656E-3,90.000003576E-3,
,,,-46.71999812E-3,90.000003576E-3,
,,,-46.67999595E-3,88.000006974E-3,
,,,-46.63999751E-3,90.000003576E-3,
,,,-46.59999534E-3,90.000003576E-3,
,,,-46.55999690E-3,90.000003576E-3,
,,,-46.51999846E-3,90.000003576E-3,
,,,-46.47999629E-3,88.000006974E-3,
,,,-46.43999785E-3,88.000006974E-3,
,,,-46.39999568E-3,90.000003576E-3,
,,,-46.35999724E-3,92.000007629E-3,
,,,-46.31999880E-3,90.000003576E-3,
,,,-46.27999663E-3,88.000006974E-3,
,,,-46.23999819E-3,90.000003576E-3,
,,,-46.19999602E-3,88.000006974E-3,
,,,-46.15999758E-3,88.000006974E-3,
,,,-46.11999542E-3,92.000007629E-3,
,,,-46.07999697E-3,90.000003576E-3,
,,,-46.03999853E-3,88.000006974E-3,
,,,-45.99999636E-3,90.000003576E-3,
,,,-45.95999792E-3,90.000003576E-3,
,,,-45.91999575E-3,90.000003576E-3,
,,,-45.87999731E-3,92.000007629E-3,
,,,-45.83999887E-3,92.000007629E-3,
,,,-45.79999670E-3,90.000003576E-3,
,,,-45.75999826E-3,90.000003576E-3,
,,,-45.71999609E-3,92.000007629E-3,
,,,-45.67999765E-3,90.000003576E-3,
,,,-45.63999549E-3,90.000003576E-3,
,,,-45.59999704E-3,88.000006974E-3,
,,,-45.55999860E-3,90.000003576E-3,
,,,-45.51999643E-3,92.000007629E-3,
,,,-45.47999799E-3,90.000003576E-3,
,,,-45.43999583E-3,90.000003576E-3,
,,,-45.39999738E-3,92.000007629E-3,
,,,-45.35999894E-3,90.000003576E-3,
,,,-45.31999677E-3,92.000007629E-3,
,,,-45.27999833E-3,90.000003576E-3,
,,,-45.23999617E-3,92.000007629E-3,
,,,-45.19999772E-3,90.000003576E-3,
,,,-45.15999556E-3,90.000003576E-3,
,,,-45.11999711E-3,92.000007629E-3,
,,,-45.07999867E-3,90.000003576E-3,
,,,-45.03999650E-3,90.000003576E-3,
,,,-44.99999806E-3,90.000003576E-3,
,,,-44.95999590E-3,92.000007629E-3,
,,,-44.91999745E-3,92.000007629E-3,
,,,-44.87999529E-3,92.000007629E-3,
,,,-44.83999684E-3,92.000007629E-3,
,,,-44.79999840E-3,92.000007629E-3,
,,,-44.75999624E-3,92.000007629E-3,
,,,-44.71999779E-3,92.000007629E-3,
,,,-44.67999563E-3,92.000007629E-3,
,,,-44.63999718E-3,92.000007629E-3,
,,,-44.59999874E-3,92.000007629E-3,
,,,-44.55999658E-3,92.000007629E-3,
,,,-44.51999813E-3,92.000007629E-3,
,,,-44.47999597E-3,92.000007629E-3,
,,,-44.43999752E-3,94.000004232E-3,
,,,-44.39999536E-3,92.000007629E-3,
,,,-44.35999691E-3,94.000004232E-3,
,,,-44.31999847E-3,94.000004232E-3,
,,,-44.27999631E-3,94.000004232E-3,
,,,-44.23999786E-3,92.000007629E-3,
,,,-44.19999570E-3,94.000004232E-3,
,,,-44.15999725E-3,94.000004232E-3,
,,,-44.11999881E-3,94.000004232E-3,
,,,-44.07999665E-3,92.000007629E-3,
,,,-44.03999820E-3,94.000004232E-3,
,,,-43.99999604E-3,94.000004232E-3,
,,,-43.95999759E-3,92.000007629E-3,
,,,-43.91999543E-3,94.000004232E-3,
,,,-43.87999699E-3,92.000007629E-3,
,,,-43.83999854E-3,94.000004232E-3,
,,,-43.79999638E-3,94.000004232E-3,
,,,-43.75999793E-3,94.000004232E-3,
,,,-43.71999577E-3,94.000004232E-3,
,,,-43.67999732E-3,94.000004232E-3,
,,,-43.63999888E-3,94.000004232E-3,
,,,-43.59999672E-3,96.000000834E-3,
,,,-43.55999827E-3,94.000004232E-3,
,,,-43.51999611E-3,98.000004888E-3,
,,,-43.47999766E-3,96.000000834E-3,
,,,-43.43999550E-3,96.000000834E-3,
,,,-43.39999706E-3,94.000004232E-3,
,,,-43.35999861E-3,94.000004232E-3,
,,,-43.31999645E-3,96.000000834E-3,
,,,-43.27999800E-3,96.000000834E-3,
,,,-43.23999584E-3,96.000000834E-3,
,,,-43.19999740E-3,96.000000834E-3,
,,,-43.15999895E-3,96.000000834E-3,
,,,-43.11999679E-3,96.000000834E-3,
,,,-43.07999834E-3,96.000000834E-3,
,,,-43.03999618E-3,96.000000834E-3,
,,,-42.99999774E-3,98.000004888E-3,
,,,-42.95999557E-3,96.000000834E-3,
,,,-42.91999713E-3,96.000000834E-3,
,,,-42.87999868E-3,96.000000834E-3,
,,,-42.83999652E-3,96.000000834E-3,
,,,-42.79999807E-3,96.000000834E-3,
,,,-42.75999591E-3,94.000004232E-3,
,,,-42.71999747E-3,96.000000834E-3,
,,,-42.67999902E-3,98.000004888E-3,
,,,-42.63999686E-3,98.000004888E-3,
,,,-42.59999841E-3,98.000004888E-3,
,,,-42.55999625E-3,96.000000834E-3,
,,,-42.51999781E-3,96.000000834E-3,
,,,-42.47999564E-3,96.000000834E-3,
,,,-42.43999720E-3,98.000004888E-3,
,,,-42.39999875E-3,98.000004888E-3,
,,,-42.35999659E-3,98.000004888E-3,
,,,-42.31999815E-3,98.000004888E-3,
,,,-42.27999598E-3,96.000000834E-3,
,,,-42.23999754E-3,98.000004888E-3,
,,,-42.19999537E-3,98.000004888E-3,
,,,-42.15999693E-3,98.000004888E-3,
,,,-42.11999848E-3,98.000004888E-3,
,,,-42.07999632E-3,98.000004888E-3,
,,,-42.03999788E-3,96.000000834E-3,
,,,-41.99999571E-3,98.000004888E-3,
,,,-41.95999727E-3,98.000004888E-3,
,,,-41.91999882E-3,98.000004888E-3,
,,,-41.87999666E-3,100.0000015E-3,
,,,-41.83999822E-3,98.000004888E-3,
,,,-41.79999605E-3,100.0000015E-3,
,,,-41.75999761E-3,100.0000015E-3,
,,,-41.71999544E-3,102.0000055E-3,
,,,-41.67999700E-3,100.0000015E-3,
,,,-41.63999856E-3,98.000004888E-3,
,,,-41.59999639E-3,98.000004888E-3,
,,,-41.55999795E-3,98.000004888E-3,
,,,-41.51999578E-3,98.000004888E-3,
,,,-41.47999734E-3,100.0000015E-3,
,,,-41.43999889E-3,100.0000015E-3,
,,,-41.39999673E-3,100.0000015E-3,
,,,-41.35999829E-3,100.0000015E-3,
,,,-41.31999612E-3,100.0000015E-3,
,,,-41.27999768E-3,102.0000055E-3,
,,,-41.23999551E-3,102.0000055E-3,
,,,-41.19999707E-3,98.000004888E-3,
,,,-41.15999863E-3,100.0000015E-3,
,,,-41.11999646E-3,100.0000015E-3,
,,,-41.07999802E-3,100.0000015E-3,
,,,-41.03999585E-3,100.0000015E-3,
,,,-40.99999741E-3,100.0000015E-3,
,,,-40.95999897E-3,102.0000055E-3,
,,,-40.91999680E-3,102.0000055E-3,
,,,-40.87999836E-3,100.0000015E-3,
,,,-40.83999619E-3,102.0000055E-3,
,,,-40.79999775E-3,102.0000055E-3,
,,,-40.75999558E-3,100.0000015E-3,
,,,-40.71999714E-3,100.0000015E-3,
,,,-40.67999870E-3,100.0000015E-3,
,,,-40.63999653E-3,102.0000055E-3,
,,,-40.59999809E-3,102.0000055E-3,
,,,-40.55999592E-3,100.0000015E-3,
,,,-40.51999748E-3,102.0000055E-3,
,,,-40.47999904E-3,102.0000055E-3,
,,,-40.43999687E-3,102.0000055E-3,
,,,-40.39999843E-3,102.0000055E-3,
,,,-40.35999626E-3,100.0000015E-3,
,,,-40.31999782E-3,100.0000015E-3,
,,,-40.27999565E-3,100.0000015E-3,
,,,-40.23999721E-3,100.0000015E-3,
,,,-40.19999877E-3,100.0000015E-3,
,,,-40.15999660E-3,102.0000055E-3,
,,,-40.11999816E-3,102.0000055E-3,
,,,-40.07999599E-3,102.0000055E-3,
,,,-40.03999755E-3,100.0000015E-3,
,,,-39.99999911E-3,100.0000015E-3,
,,,-39.95999694E-3,104.0000021E-3,
,,,-39.91999850E-3,102.0000055E-3,
,,,-39.87999633E-3,102.0000055E-3,
,,,-39.83999789E-3,102.0000055E-3,
,,,-39.79999572E-3,102.0000055E-3,
,,,-39.75999728E-3,104.0000021E-3,
,,,-39.71999884E-3,102.0000055E-3,
,,,-39.67999667E-3,100.0000015E-3,
,,,-39.63999823E-3,100.0000015E-3,
,,,-39.59999606E-3,102.0000055E-3,
,,,-39.55999762E-3,104.0000021E-3,
,,,-39.51999545E-3,104.0000021E-3,
,,,-39.47999701E-3,104.0000021E-3,
,,,-39.43999857E-3,102.0000055E-3,
,,,-39.39999640E-3,102.0000055E-3,
,,,-39.35999796E-3,102.0000055E-3,
,,,-39.31999579E-3,102.0000055E-3,
,,,-39.27999735E-3,102.0000055E-3,
,,,-39.23999891E-3,100.0000015E-3,
,,,-39.19999674E-3,102.0000055E-3,
,,,-39.15999830E-3,100.0000015E-3,
,,,-39.11999613E-3,100.0000015E-3,
,,,-39.07999769E-3,100.0000015E-3,
,,,-39.03999552E-3,100.0000015E-3,
,,,-38.99999708E-3,100.0000015E-3,
,,,-38.95999864E-3,100.0000015E-3,
,,,-38.91999647E-3,100.0000015E-3,
,,,-38.87999803E-3,102.0000055E-3,
,,,-38.83999586E-3,100.0000015E-3,
,,,-38.79999742E-3,100.0000015E-3,
,,,-38.75999898E-3,102.0000055E-3,
,,,-38.71999681E-3,98.000004888E-3,
,,,-38.67999837E-3,98.000004888E-3,
,,,-38.63999620E-3,100.0000015E-3,
,,,-38.59999776E-3,98.000004888E-3,
,,,-38.55999559E-3,98.000004888E-3,
,,,-38.51999715E-3,98.000004888E-3,
,,,-38.47999871E-3,100.0000015E-3,
,,,-38.43999654E-3,98.000004888E-3,
,,,-38.39999810E-3,96.000000834E-3,
,,,-38.35999593E-3,98.000004888E-3,
,,,-38.31999749E-3,98.000004888E-3,
,,,-38.27999905E-3,96.000000834E-3,
,,,-38.23999688E-3,96.000000834E-3,
,,,-38.19999844E-3,96.000000834E-3,
,,,-38.15999627E-3,98.000004888E-3,
,,,-38.11999783E-3,94.000004232E-3,
,,,-38.07999566E-3,98.000004888E-3,
,,,-38.03999722E-3,92.000007629E-3,
,,,-37.99999878E-3,96.000000834E-3,
,,,-37.95999661E-3,96.000000834E-3,
,,,-37.91999817E-3,96.000000834E-3,
,,,-37.87999600E-3,94.000004232E-3,
,,,-37.83999756E-3,94.000004232E-3,
,,,-37.79999912E-3,92.000007629E-3,
,,,-37.75999695E-3,94.000004232E-3,
,,,-37.71999851E-3,92.000007629E-3,
,,,-37.67999634E-3,94.000004232E-3,
,,,-37.63999790E-3,92.000007629E-3,
,,,-37.59999573E-3,92.000007629E-3,
,,,-37.55999729E-3,92.000007629E-3,
,,,-37.51999885E-3,92.000007629E-3,
,,,-37.47999668E-3,92.000007629E-3,
,,,-37.43999824E-3,92.000007629E-3,
,,,-37.39999607E-3,92.000007629E-3,
,,,-37.35999763E-3,90.000003576E-3,
,,,-37.31999919E-3,92.000007629E-3,
,,,-37.27999702E-3,90.000003576E-3,
,,,-37.23999858E-3,88.000006974E-3,
,,,-37.19999641E-3,90.000003576E-3,
,,,-37.15999797E-3,92.000007629E-3,
,,,-37.11999580E-3,90.000003576E-3,
,,,-37.07999736E-3,90.000003576E-3,
,,,-37.03999892E-3,90.000003576E-3,
,,,-36.99999675E-3,90.000003576E-3,
,,,-36.95999831E-3,92.000007629E-3,
,,,-36.91999614E-3,90.000003576E-3,
,,,-36.87999770E-3,92.000007629E-3,
,,,-36.83999553E-3,90.000003576E-3,
,,,-36.79999709E-3,88.000006974E-3,
,,,-36.75999865E-3,88.000006974E-3,
,,,-36.71999648E-3,90.000003576E-3,
,,,-36.67999804E-3,90.000003576E-3,
,,,-36.63999587E-3,88.000006974E-3,
,,,-36.59999743E-3,90.000003576E-3,
,,,-36.55999899E-3,90.000003576E-3,
,,,-36.51999682E-3,88.000006974E-3,
,,,-36.47999838E-3,90.000003576E-3,
,,,-36.43999621E-3,90.000003576E-3,
,,,-36.39999777E-3,88.000006974E-3,
,,,-36.35999560E-3,88.000006974E-3,
,,,-36.31999716E-3,90.000003576E-3,
,,,-36.27999872E-3,90.000003576E-3,
,,,-36.23999655E-3,92.000007629E-3,
,,,-36.19999811E-3,88.000006974E-3,
,,,-36.15999594E-3,90.000003576E-3,
,,,-36.11999750E-3,90.000003576E-3,
,,,-36.07999906E-3,90.000003576E-3,
,,,-36.03999689E-3,90.000003576E-3,
,,,-35.99999845E-3,90.000003576E-3,
,,,-35.95999628E-3,90.000003576E-3,
,,,-35.91999784E-3,90.000003576E-3,
,,,-35.87999567E-3,92.000007629E-3,
,,,-35.83999723E-3,90.000003576E-3,
,,,-35.79999879E-3,90.000003576E-3,
,,,-35.75999662E-3,92.000007629E-3,
,,,-35.71999818E-3,90.000003576E-3,
,,,-35.67999601E-3,90.000003576E-3,
,,,-35.63999757E-3,88.000006974E-3,
,,,-35.59999913E-3,90.000003576E-3,
,,,-35.55999696E-3,88.000006974E-3,
,,,-35.51999852E-3,90.000003576E-3,
,,,-35.47999635E-3,90.000003576E-3,
,,,-35.43999791E-3,90.000003576E-3,
,,,-35.39999574E-3,92.000007629E-3,
,,,-35.35999730E-3,92.000007629E-3,
,,,-35.31999886E-3,92.000007629E-3,
,,,-35.27999669E-3,88.000006974E-3,
,,,-35.23999825E-3,92.000007629E-3,
,,,-35.19999608E-3,92.000007629E-3,
,,,-35.15999764E-3,94.000004232E-3,
,,,-35.11999920E-3,92.000007629E-3,
,,,-35.07999703E-3,92.000007629E-3,
,,,-35.03999859E-3,92.000007629E-3,
,,,-34.99999642E-3,92.000007629E-3,
,,,-34.95999798E-3,92.000007629E-3,
,,,-34.91999581E-3,92.000007629E-3,
,,,-34.87999737E-3,92.000007629E-3,
,,,-34.83999893E-3,92.000007629E-3,
,,,-34.79999676E-3,92.000007629E-3,
,,,-34.75999832E-3,92.000007629E-3,
,,,-34.71999615E-3,90.000003576E-3,
,,,-34.67999771E-3,92.000007629E-3,
,,,-34.63999927E-3,94.000004232E-3,
,,,-34.59999710E-3,92.000007629E-3,
,,,-34.55999866E-3,92.000007629E-3,
,,,-34.51999649E-3,94.000004232E-3,
,,,-34.47999805E-3,92.000007629E-3,
,,,-34.43999588E-3,96.000000834E-3,
,,,-34.39999744E-3,94.000004232E-3,
,,,-34.35999900E-3,94.000004232E-3,
,,,-34.31999683E-3,94.000004232E-3,
,,,-34.27999839E-3,94.000004232E-3,
,,,-34.23999622E-3,94.000004232E-3,
,,,-34.19999778E-3,94.000004232E-3,
,,,-34.15999562E-3,94.000004232E-3,
,,,-34.11999717E-3,96.000000834E-3,
,,,-34.07999873E-3,94.000004232E-3,
,,,-34.03999656E-3,96.000000834E-3,
,,,-33.99999812E-3,94.000004232E-3,
,,,-33.95999596E-3,92.000007629E-3,
,,,-33.91999751E-3,96.000000834E-3,
,,,-33.87999907E-3,94.000004232E-3,
,,,-33.83999690E-3,98.000004888E-3,
,,,-33.79999846E-3,94.000004232E-3,
,,,-33.75999629E-3,96.000000834E-3,
,,,-33.71999785E-3,96.000000834E-3,
,,,-33.67999569E-3,94.000004232E-3,
,,,-33.63999724E-3,94.000004232E-3,
,,,-33.59999880E-3,94.000004232E-3,
,,,-33.55999663E-3,98.000004888E-3,
,,,-33.51999819E-3,96.000000834E-3,
,,,-33.47999603E-3,96.000000834E-3,
,,,-33.43999758E-3,98.000004888E-3,
,,,-33.39999914E-3,96.000000834E-3,
,,,-33.35999697E-3,96.000000834E-3,
,,,-33.31999853E-3,98.000004888E-3,
,,,-33.27999637E-3,96.000000834E-3,
,,,-33.23999792E-3,98.000004888E-3,
,,,-33.19999576E-3,98.000004888E-3,
,,,-33.15999731E-3,98.000004888E-3,
,,,-33.11999887E-3,100.0000015E-3,
,,,-33.07999671E-3,96.000000834E-3,
,,,-33.03999826E-3,96.000000834E-3,
,,,-32.99999610E-3,98.000004888E-3,
,,,-32.95999765E-3,98.000004888E-3,
,,,-32.91999921E-3,100.0000015E-3,
,,,-32.87999704E-3,98.000004888E-3,
,,,-32.83999860E-3,98.000004888E-3,
,,,-32.79999644E-3,96.000000834E-3,
,,,-32.75999799E-3,98.000004888E-3,
,,,-32.71999583E-3,98.000004888E-3,
,,,-32.67999738E-3,98.000004888E-3,
,,,-32.63999894E-3,98.000004888E-3,
,,,-32.59999678E-3,98.000004888E-3,
,,,-32.55999833E-3,96.000000834E-3,
,,,-32.51999617E-3,98.000004888E-3,
,,,-32.47999772E-3,98.000004888E-3,
,,,-32.43999928E-3,100.0000015E-3,
,,,-32.39999712E-3,98.000004888E-3,
,,,-32.35999867E-3,98.000004888E-3,
,,,-32.31999651E-3,98.000004888E-3,
,,,-32.27999806E-3,98.000004888E-3,
,,,-32.23999590E-3,100.0000015E-3,
,,,-32.19999745E-3,100.0000015E-3,
,,,-32.15999901E-3,98.000004888E-3,
,,,-32.11999685E-3,98.000004888E-3,
,,,-32.07999840E-3,100.0000015E-3,
,,,-32.03999624E-3,98.000004888E-3,
,,,-31.99999779E-3,100.0000015E-3,
,,,-31.95999563E-3,98.000004888E-3,
,,,-31.91999719E-3,100.0000015E-3,
,,,-31.87999874E-3,100.0000015E-3,
,,,-31.83999658E-3,100.0000015E-3,
,,,-31.79999813E-3,100.0000015E-3,
,,,-31.75999597E-3,100.0000015E-3,
,,,-31.71999753E-3,100.0000015E-3,
,,,-31.67999908E-3,100.0000015E-3,
,,,-31.63999692E-3,98.000004888E-3,
,,,-31.59999847E-3,100.0000015E-3,
,,,-31.55999631E-3,100.0000015E-3,
,,,-31.51999786E-3,102.0000055E-3,
,,,-31.47999570E-3,102.0000055E-3,
,,,-31.43999726E-3,100.0000015E-3,
,,,-31.39999881E-3,100.0000015E-3,
,,,-31.35999665E-3,102.0000055E-3,
,,,-31.31999820E-3,100.0000015E-3,
,,,-31.27999604E-3,100.0000015E-3,
,,,-31.23999760E-3,100.0000015E-3,
,,,-31.19999729E-3,102.0000055E-3,
,,,-31.15999699E-3,100.0000015E-3,
,,,-31.11999668E-3,100.0000015E-3,
,,,-31.07999824E-3,102.0000055E-3,
,,,-31.03999794E-3,100.0000015E-3,
,,,-30.99999763E-3,102.0000055E-3,
,,,-30.95999733E-3,102.0000055E-3,
,,,-30.91999702E-3,102.0000055E-3,
,,,-30.87999672E-3,100.0000015E-3,
,,,-30.83999828E-3,102.0000055E-3,
,,,-30.79999797E-3,104.0000021E-3,
,,,-30.75999767E-3,102.0000055E-3,
,,,-30.71999736E-3,102.0000055E-3,
,,,-30.67999706E-3,104.0000021E-3,
,,,-30.63999675E-3,100.0000015E-3,
,,,-30.59999831E-3,102.0000055E-3,
,,,-30.55999801E-3,102.0000055E-3,
,,,-30.51999770E-3,104.0000021E-3,
,,,-30.47999740E-3,102.0000055E-3,
,,,-30.43999709E-3,102.0000055E-3,
,,,-30.39999679E-3,104.0000021E-3,
,,,-30.35999835E-3,102.0000055E-3,
,,,-30.31999804E-3,104.0000021E-3,
,,,-30.27999774E-3,102.0000055E-3,
,,,-30.23999743E-3,102.0000055E-3,
,,,-30.19999713E-3,102.0000055E-3,
,,,-30.15999682E-3,100.0000015E-3,
,,,-30.11999838E-3,102.0000055E-3,
,,,-30.07999808E-3,102.0000055E-3,
,,,-30.03999777E-3,100.0000015E-3,
,,,-29.99999747E-3,102.0000055E-3,
,,,-29.95999716E-3,104.0000021E-3,
,,,-29.91999686E-3,104.0000021E-3,
,,,-29.87999842E-3,102.0000055E-3,
,,,-29.83999811E-3,102.0000055E-3,
,,,-29.79999781E-3,102.0000055E-3,
,,,-29.75999750E-3,102.0000055E-3,
,,,-29.71999720E-3,102.0000055E-3,
,,,-29.67999689E-3,102.0000055E-3,
,,,-29.63999845E-3,102.0000055E-3,
,,,-29.59999815E-3,102.0000055E-3,
,,,-29.55999784E-3,100.0000015E-3,
,,,-29.51999754E-3,104.0000021E-3,
,,,-29.47999723E-3,102.0000055E-3,
,,,-29.43999693E-3,104.0000021E-3,
,,,-29.39999662E-3,104.0000021E-3,
,,,-29.35999818E-3,102.0000055E-3,
,,,-29.31999788E-3,102.0000055E-3,
,,,-29.27999757E-3,104.0000021E-3,
,,,-29.23999727E-3,104.0000021E-3,
,,,-29.19999696E-3,102.0000055E-3,
,,,-29.15999666E-3,100.0000015E-3,
,,,-29.11999822E-3,100.0000015E-3,
,,,-29.07999791E-3,100.0000015E-3,
,,,-29.03999761E-3,98.000004888E-3,
,,,-28.99999730E-3,102.0000055E-3,
,,,-28.95999700E-3,100.0000015E-3,
,,,-28.91999669E-3,102.0000055E-3,
,,,-28.87999825E-3,100.0000015E-3,
,,,-28.83999795E-3,102.0000055E-3,
,,,-28.79999764E-3,100.0000015E-3,
,,,-28.75999734E-3,100.0000015E-3,
,,,-28.71999703E-3,98.000004888E-3,
,,,-28.67999673E-3,100.0000015E-3,
,,,-28.63999829E-3,102.0000055E-3,
,,,-28.59999798E-3,96.000000834E-3,
,,,-28.55999768E-3,98.000004888E-3,
,,,-28.51999737E-3,100.0000015E-3,
,,,-28.47999707E-3,98.000004888E-3,
,,,-28.43999676E-3,98.000004888E-3,
,,,-28.39999832E-3,98.000004888E-3,
,,,-28.35999802E-3,96.000000834E-3,
,,,-28.31999771E-3,98.000004888E-3,
,,,-28.27999741E-3,98.000004888E-3,
,,,-28.23999710E-3,98.000004888E-3,
,,,-28.19999680E-3,98.000004888E-3,
,,,-28.15999836E-3,98.000004888E-3,
,,,-28.11999805E-3,96.000000834E-3,
,,,-28.07999775E-3,96.000000834E-3,
,,,-28.03999744E-3,96.000000834E-3,
,,,-27.99999714E-3,96.000000834E-3,
,,,-27.95999683E-3,94.000004232E-3,
,,,-27.91999839E-3,94.000004232E-3,
