polarbears/bragg2/60.csv

Record Length,2500,Points,-24.99999851E-3,1.1200000,
Sample Interval,19.9999995E-6,s,-24.97999929E-3,1.1200000,
Trigger Point,1.2500000E3,Samples,-24.95999821E-3,1.1200000,
,,,-24.93999898E-3,1.1200000,
,,,-24.91999790E-3,1.1400000,
,,,-24.89999868E-3,1.1200000,
Source,CH1,,-24.87999760E-3,1.1200000,
Vertical Units,Volts,,-24.85999838E-3,1.1200000,
Vertical Scale,499.999988824E-3,,-24.83999915E-3,1.1200000,
Vertical Offset,0,,-24.81999807E-3,1.1200000,
Horizontal Units,s,,-24.79999885E-3,1.1200000,
Horizontal Scale,4.99999987E-3,,-24.77999777E-3,1.1200000,
Pt Fmt,Y,,-24.75999855E-3,1.1200000,
Yzero,0.0,,-24.73999932E-3,1.1200000,
Probe Atten,1.000000,,-24.71999824E-3,1.1200000,
,,,-24.69999902E-3,1.1200000,
Note,TDS 2001C - 17:17:39   2025-05-14,,-24.67999794E-3,1.1400000,
,,,-24.65999871E-3,1.1200000,
,,,-24.63999763E-3,1.1200000,
,,,-24.61999841E-3,1.1400000,
,,,-24.59999919E-3,1.1400000,
,,,-24.57999811E-3,1.1400000,
,,,-24.55999888E-3,1.1400000,
,,,-24.53999780E-3,1.1400000,
,,,-24.51999858E-3,1.1400000,
,,,-24.49999936E-3,1.1400000,
,,,-24.47999828E-3,1.1200000,
,,,-24.45999905E-3,1.1400000,
,,,-24.43999797E-3,1.1400000,
,,,-24.41999875E-3,1.1400000,
,,,-24.39999767E-3,1.1600000,
,,,-24.37999845E-3,1.1400000,
,,,-24.35999922E-3,1.1600000,
,,,-24.33999814E-3,1.1600000,
,,,-24.31999892E-3,1.1400000,
,,,-24.29999784E-3,1.1600000,
,,,-24.27999862E-3,1.1400000,
,,,-24.25999939E-3,1.1400000,
,,,-24.23999831E-3,1.1600000,
,,,-24.21999909E-3,1.1600000,
,,,-24.19999801E-3,1.1600000,
,,,-24.17999879E-3,1.1600000,
,,,-24.15999770E-3,1.1600000,
,,,-24.13999848E-3,1.1600000,
,,,-24.11999926E-3,1.1600000,
,,,-24.09999818E-3,1.1600000,
,,,-24.07999896E-3,1.1400000,
,,,-24.05999787E-3,1.1600000,
,,,-24.03999865E-3,1.1600000,
,,,-24.01999943E-3,1.1600000,
,,,-23.99999835E-3,1.1600000,
,,,-23.97999913E-3,1.1600000,
,,,-23.95999804E-3,1.1600000,
,,,-23.93999882E-3,1.1600000,
,,,-23.91999774E-3,1.1799999,
,,,-23.89999852E-3,1.1600000,
,,,-23.87999929E-3,1.1600000,
,,,-23.85999821E-3,1.1600000,
,,,-23.83999899E-3,1.1600000,
,,,-23.81999791E-3,1.1600000,
,,,-23.79999869E-3,1.1799999,
,,,-23.77999946E-3,1.1600000,
,,,-23.75999838E-3,1.1799999,
,,,-23.73999916E-3,1.1600000,
,,,-23.71999808E-3,1.1799999,
,,,-23.69999886E-3,1.1799999,
,,,-23.67999777E-3,1.1600000,
,,,-23.65999855E-3,1.1600000,
,,,-23.63999933E-3,1.1799999,
,,,-23.61999825E-3,1.1799999,
,,,-23.59999903E-3,1.1799999,
,,,-23.57999794E-3,1.1799999,
,,,-23.55999872E-3,1.1600000,
,,,-23.53999764E-3,1.1799999,
,,,-23.51999842E-3,1.1799999,
,,,-23.49999920E-3,1.1999999,
,,,-23.47999811E-3,1.1999999,
,,,-23.45999889E-3,1.1799999,
,,,-23.43999781E-3,1.1799999,
,,,-23.41999859E-3,1.1999999,
,,,-23.39999937E-3,1.1799999,
,,,-23.37999828E-3,1.1799999,
,,,-23.35999906E-3,1.1799999,
,,,-23.33999798E-3,1.1799999,
,,,-23.31999876E-3,1.1799999,
,,,-23.29999767E-3,1.1799999,
,,,-23.27999845E-3,1.1799999,
,,,-23.25999923E-3,1.1799999,
,,,-23.23999815E-3,1.1999999,
,,,-23.21999893E-3,1.1999999,
,,,-23.19999784E-3,1.1999999,
,,,-23.17999862E-3,1.1999999,
,,,-23.15999940E-3,1.1999999,
,,,-23.13999832E-3,1.1999999,
,,,-23.11999910E-3,1.1799999,
,,,-23.09999801E-3,1.1799999,
,,,-23.07999879E-3,1.1999999,
,,,-23.05999771E-3,1.1999999,
,,,-23.03999849E-3,1.1999999,
,,,-23.01999927E-3,1.1999999,
,,,-22.99999818E-3,1.1999999,
,,,-22.97999896E-3,1.2200000,
,,,-22.95999788E-3,1.1799999,
,,,-22.93999866E-3,1.1999999,
,,,-22.91999944E-3,1.2200000,
,,,-22.89999835E-3,1.1999999,
,,,-22.87999913E-3,1.2200000,
,,,-22.85999805E-3,1.2200000,
,,,-22.83999883E-3,1.1999999,
,,,-22.81999774E-3,1.1999999,
,,,-22.79999852E-3,1.1999999,
,,,-22.77999930E-3,1.2200000,
,,,-22.75999822E-3,1.2200000,
,,,-22.73999900E-3,1.2200000,
,,,-22.71999791E-3,1.1999999,
,,,-22.69999869E-3,1.1999999,
,,,-22.67999947E-3,1.2200000,
,,,-22.65999839E-3,1.2200000,
,,,-22.63999917E-3,1.2200000,
,,,-22.61999808E-3,1.2200000,
,,,-22.59999886E-3,1.2200000,
,,,-22.57999778E-3,1.2200000,
,,,-22.55999856E-3,1.2200000,
,,,-22.53999934E-3,1.2200000,
,,,-22.51999825E-3,1.2200000,
,,,-22.49999903E-3,1.2200000,
,,,-22.47999795E-3,1.2200000,
,,,-22.45999873E-3,1.2200000,
,,,-22.43999764E-3,1.2200000,
,,,-22.41999842E-3,1.2200000,
,,,-22.39999920E-3,1.2200000,
,,,-22.37999812E-3,1.2200000,
,,,-22.35999890E-3,1.2200000,
,,,-22.33999781E-3,1.2200000,
,,,-22.31999859E-3,1.2200000,
,,,-22.29999937E-3,1.2200000,
,,,-22.27999829E-3,1.2200000,
,,,-22.25999907E-3,1.2200000,
,,,-22.23999798E-3,1.2200000,
,,,-22.21999876E-3,1.2200000,
,,,-22.19999768E-3,1.2200000,
,,,-22.17999846E-3,1.2200000,
,,,-22.15999924E-3,1.2400000,
,,,-22.13999815E-3,1.2200000,
,,,-22.11999893E-3,1.2400000,
,,,-22.09999785E-3,1.2400000,
,,,-22.07999863E-3,1.2400000,
,,,-22.05999941E-3,1.2200000,
,,,-22.03999832E-3,1.2400000,
,,,-22.01999910E-3,1.2200000,
,,,-21.99999802E-3,1.2200000,
,,,-21.97999880E-3,1.2600000,
,,,-21.95999771E-3,1.2200000,
,,,-21.93999849E-3,1.2200000,
,,,-21.91999927E-3,1.2400000,
,,,-21.89999819E-3,1.2400000,
,,,-21.87999897E-3,1.2400000,
,,,-21.85999788E-3,1.2400000,
,,,-21.83999866E-3,1.2400000,
,,,-21.81999944E-3,1.2200000,
,,,-21.79999836E-3,1.2400000,
,,,-21.77999914E-3,1.2400000,
,,,-21.75999805E-3,1.2400000,
,,,-21.73999883E-3,1.2600000,
,,,-21.71999775E-3,1.2400000,
,,,-21.69999853E-3,1.2200000,
,,,-21.67999931E-3,1.2400000,
,,,-21.65999822E-3,1.2600000,
,,,-21.63999900E-3,1.2600000,
,,,-21.61999792E-3,1.2400000,
,,,-21.59999870E-3,1.2400000,
,,,-21.57999948E-3,1.2400000,
,,,-21.55999839E-3,1.2200000,
,,,-21.53999917E-3,1.2400000,
,,,-21.51999809E-3,1.2400000,
,,,-21.49999887E-3,1.2600000,
,,,-21.47999778E-3,1.2400000,
,,,-21.45999856E-3,1.2400000,
,,,-21.43999934E-3,1.2600000,
,,,-21.41999826E-3,1.2600000,
,,,-21.39999904E-3,1.2400000,
,,,-21.37999795E-3,1.2600000,
,,,-21.35999873E-3,1.2600000,
,,,-21.33999951E-3,1.2600000,
,,,-21.31999843E-3,1.2600000,
,,,-21.29999921E-3,1.2400000,
,,,-21.27999812E-3,1.2400000,
,,,-21.25999890E-3,1.2600000,
,,,-21.23999782E-3,1.2600000,
,,,-21.21999860E-3,1.2600000,
,,,-21.19999938E-3,1.2600000,
,,,-21.17999829E-3,1.2400000,
,,,-21.15999907E-3,1.2600000,
,,,-21.13999799E-3,1.2600000,
,,,-21.11999877E-3,1.2600000,
,,,-21.09999768E-3,1.2600000,
,,,-21.07999846E-3,1.2600000,
,,,-21.05999924E-3,1.2600000,
,,,-21.03999816E-3,1.2600000,
,,,-21.01999894E-3,1.2600000,
,,,-20.99999785E-3,1.2600000,
,,,-20.97999863E-3,1.2600000,
,,,-20.95999941E-3,1.2600000,
,,,-20.93999833E-3,1.2600000,
,,,-20.91999911E-3,1.2600000,
,,,-20.89999802E-3,1.2600000,
,,,-20.87999880E-3,1.2600000,
,,,-20.85999772E-3,1.2600000,
,,,-20.83999850E-3,1.2600000,
,,,-20.81999928E-3,1.2600000,
,,,-20.79999819E-3,1.2600000,
,,,-20.77999897E-3,1.2600000,
,,,-20.75999789E-3,1.2600000,
,,,-20.73999867E-3,1.2800000,
,,,-20.71999945E-3,1.2600000,
,,,-20.69999836E-3,1.2800000,
,,,-20.67999914E-3,1.2600000,
,,,-20.65999806E-3,1.2600000,
,,,-20.63999884E-3,1.2600000,
,,,-20.61999775E-3,1.2800000,
,,,-20.59999853E-3,1.2600000,
,,,-20.57999931E-3,1.2600000,
,,,-20.55999823E-3,1.2600000,
,,,-20.53999901E-3,1.2600000,
,,,-20.51999792E-3,1.2600000,
,,,-20.49999870E-3,1.2600000,
,,,-20.47999948E-3,1.2800000,
,,,-20.45999840E-3,1.2800000,
,,,-20.43999918E-3,1.2600000,
,,,-20.41999809E-3,1.2600000,
,,,-20.39999887E-3,1.2800000,
,,,-20.37999779E-3,1.2800000,
,,,-20.35999857E-3,1.2800000,
,,,-20.33999935E-3,1.2800000,
,,,-20.31999826E-3,1.2600000,
,,,-20.29999904E-3,1.2800000,
,,,-20.27999796E-3,1.2600000,
,,,-20.25999874E-3,1.2800000,
,,,-20.23999952E-3,1.2600000,
,,,-20.21999843E-3,1.2800000,
,,,-20.19999921E-3,1.2800000,
,,,-20.17999813E-3,1.2800000,
,,,-20.15999891E-3,1.2800000,
,,,-20.13999783E-3,1.2800000,
,,,-20.11999860E-3,1.2800000,
,,,-20.09999938E-3,1.2800000,
,,,-20.0799983E-3,1.2800000,
,,,-20.0599991E-3,1.2600000,
,,,-20.0399980E-3,1.2800000,
,,,-20.0199988E-3,1.2800000,
,,,-19.9999996E-3,1.2800000,
,,,-19.9799985E-3,1.2600000,
,,,-19.9599992E-3,1.2800000,
,,,-19.9399982E-3,1.2800000,
,,,-19.9199989E-3,1.2800000,
,,,-19.8999979E-3,1.2600000,
,,,-19.8799986E-3,1.2800000,
,,,-19.8599994E-3,1.2600000,
,,,-19.8399983E-3,1.2600000,
,,,-19.8199991E-3,1.2600000,
,,,-19.7999980E-3,1.2800000,
,,,-19.7799988E-3,1.2600000,
,,,-19.7599977E-3,1.2600000,
,,,-19.7399985E-3,1.2800000,
,,,-19.7199993E-3,1.2800000,
,,,-19.6999982E-3,1.2800000,
,,,-19.6799990E-3,1.2800000,
,,,-19.6599979E-3,1.2800000,
,,,-19.6399987E-3,1.2800000,
,,,-19.6199995E-3,1.2800000,
,,,-19.5999984E-3,1.2600000,
,,,-19.5799991E-3,1.2600000,
,,,-19.5599981E-3,1.2800000,
,,,-19.5399988E-3,1.2600000,
,,,-19.5199978E-3,1.2800000,
,,,-19.4999985E-3,1.2600000,
,,,-19.4799993E-3,1.2600000,
,,,-19.4599982E-3,1.2600000,
,,,-19.4399990E-3,1.2600000,
,,,-19.4199979E-3,1.2600000,
,,,-19.3999987E-3,1.2600000,
,,,-19.3799995E-3,1.2600000,
,,,-19.3599984E-3,1.2600000,
,,,-19.3399992E-3,1.2600000,
,,,-19.3199981E-3,1.2800000,
,,,-19.2999989E-3,1.2400000,
,,,-19.2799978E-3,1.2600000,
,,,-19.2599986E-3,1.2400000,
,,,-19.2399994E-3,1.2600000,
,,,-19.2199983E-3,1.2600000,
,,,-19.1999990E-3,1.2600000,
,,,-19.1799980E-3,1.2600000,
,,,-19.1599987E-3,1.2600000,
,,,-19.1399995E-3,1.2800000,
,,,-19.1199984E-3,1.2600000,
,,,-19.0999992E-3,1.2600000,
,,,-19.0799981E-3,1.2600000,
,,,-19.0599989E-3,1.2600000,
,,,-19.0399978E-3,1.2600000,
,,,-19.0199986E-3,1.2600000,
,,,-18.9999994E-3,1.2600000,
,,,-18.9799983E-3,1.2600000,
,,,-18.9599991E-3,1.2600000,
,,,-18.9399980E-3,1.2600000,
,,,-18.9199988E-3,1.2400000,
,,,-18.8999996E-3,1.2400000,
,,,-18.8799985E-3,1.2400000,
,,,-18.8599993E-3,1.2600000,
,,,-18.8399982E-3,1.2600000,
,,,-18.8199989E-3,1.2400000,
,,,-18.7999979E-3,1.2400000,
,,,-18.7799986E-3,1.2400000,
,,,-18.7599994E-3,1.2400000,
,,,-18.7399983E-3,1.2400000,
,,,-18.7199991E-3,1.2400000,
,,,-18.6999980E-3,1.2400000,
,,,-18.6799988E-3,1.2400000,
,,,-18.6599996E-3,1.2400000,
,,,-18.6399985E-3,1.2400000,
,,,-18.6199993E-3,1.2200000,
,,,-18.5999982E-3,1.2200000,
,,,-18.5799990E-3,1.2200000,
,,,-18.5599979E-3,1.2200000,
,,,-18.5399987E-3,1.2200000,
,,,-18.5199995E-3,1.2200000,
,,,-18.4999984E-3,1.2200000,
,,,-18.4799992E-3,1.2200000,
,,,-18.4599981E-3,1.2200000,
,,,-18.4399989E-3,1.2200000,
,,,-18.4199978E-3,1.2200000,
,,,-18.3999985E-3,1.1999999,
,,,-18.3799993E-3,1.2200000,
,,,-18.3599982E-3,1.2200000,
,,,-18.3399990E-3,1.2200000,
,,,-18.3199979E-3,1.2200000,
,,,-18.2999987E-3,1.1999999,
,,,-18.2799995E-3,1.1999999,
,,,-18.2599984E-3,1.1999999,
,,,-18.2399992E-3,1.1799999,
,,,-18.2199981E-3,1.1999999,
,,,-18.1999989E-3,1.1999999,
,,,-18.1799978E-3,1.1799999,
,,,-18.1599986E-3,1.1999999,
,,,-18.1399994E-3,1.1999999,
,,,-18.1199983E-3,1.1799999,
,,,-18.0999991E-3,1.1799999,
,,,-18.0799980E-3,1.1799999,
,,,-18.0599988E-3,1.1799999,
,,,-18.0399995E-3,1.1799999,
,,,-18.0199984E-3,1.1799999,
,,,-17.9999992E-3,1.1600000,
,,,-17.9799981E-3,1.1799999,
,,,-17.9599989E-3,1.1799999,
,,,-17.9399978E-3,1.1600000,
,,,-17.9199986E-3,1.1600000,
,,,-17.8999994E-3,1.1600000,
,,,-17.8799983E-3,1.1600000,
,,,-17.8599991E-3,1.1600000,
,,,-17.8399980E-3,1.1600000,
,,,-17.8199988E-3,1.1600000,
,,,-17.7999996E-3,1.1400000,
,,,-17.7799985E-3,1.1600000,
,,,-17.7599993E-3,1.1600000,
,,,-17.7399982E-3,1.1600000,
,,,-17.7199990E-3,1.1400000,
,,,-17.6999979E-3,1.1600000,
,,,-17.6799987E-3,1.1400000,
,,,-17.6599994E-3,1.1400000,
,,,-17.6399983E-3,1.1400000,
,,,-17.6199991E-3,1.1200000,
,,,-17.5999980E-3,1.1400000,
,,,-17.5799988E-3,1.1400000,
,,,-17.5599996E-3,1.1200000,
,,,-17.5399985E-3,1.1200000,
,,,-17.5199993E-3,1.1200000,
,,,-17.4999982E-3,1.1200000,
,,,-17.4799990E-3,1.1200000,
,,,-17.4599979E-3,1.1200000,
,,,-17.4399987E-3,1.1000000,
,,,-17.4199995E-3,1.1000000,
,,,-17.3999984E-3,1.1000000,
,,,-17.3799992E-3,1.1000000,
,,,-17.3599981E-3,1.1200000,
,,,-17.3399989E-3,1.1000000,
,,,-17.3199996E-3,1.1000000,
,,,-17.2999986E-3,1.1000000,
,,,-17.2799993E-3,1.1000000,
,,,-17.2599982E-3,1.1000000,
,,,-17.2399990E-3,1.1000000,
,,,-17.2199979E-3,1.0799999,
,,,-17.1999987E-3,1.1000000,
,,,-17.1799995E-3,1.1000000,
,,,-17.1599984E-3,1.0799999,
,,,-17.1399992E-3,1.0799999,
,,,-17.1199981E-3,1.0799999,
,,,-17.0999989E-3,1.0799999,
,,,-17.0799978E-3,1.0599999,
,,,-17.0599986E-3,1.0799999,
,,,-17.0399994E-3,1.0799999,
,,,-17.0199983E-3,1.0599999,
,,,-16.9999991E-3,1.0599999,
,,,-16.9799980E-3,1.0599999,
,,,-16.9599988E-3,1.0599999,
,,,-16.9399995E-3,1.0799999,
,,,-16.9199985E-3,1.0599999,
,,,-16.8999992E-3,1.0799999,
,,,-16.8799981E-3,1.0599999,
,,,-16.8599989E-3,1.0799999,
,,,-16.8399978E-3,1.0799999,
,,,-16.8199986E-3,1.0799999,
,,,-16.7999994E-3,1.0599999,
,,,-16.7799983E-3,1.0599999,
,,,-16.7599991E-3,1.0599999,
,,,-16.7399980E-3,1.0599999,
,,,-16.7199988E-3,1.0799999,
,,,-16.6999996E-3,1.0799999,
,,,-16.6799985E-3,1.0599999,
,,,-16.6599993E-3,1.0599999,
,,,-16.6399982E-3,1.0799999,
,,,-16.6199990E-3,1.0599999,
,,,-16.5999979E-3,1.0599999,
,,,-16.5799987E-3,1.0599999,
,,,-16.5599994E-3,1.0799999,
,,,-16.5399984E-3,1.0599999,
,,,-16.5199991E-3,1.0599999,
,,,-16.4999980E-3,1.0799999,
,,,-16.4799988E-3,1.0599999,
,,,-16.4599996E-3,1.0599999,
,,,-16.4399985E-3,1.0599999,
,,,-16.4199993E-3,1.0799999,
,,,-16.3999982E-3,1.0799999,
,,,-16.3799990E-3,1.0599999,
,,,-16.3599979E-3,1.0799999,
,,,-16.3399987E-3,1.0799999,
,,,-16.3199995E-3,1.0599999,
,,,-16.2999984E-3,1.0799999,
,,,-16.2799992E-3,1.1000000,
,,,-16.2599981E-3,1.0799999,
,,,-16.2399989E-3,1.0799999,
,,,-16.2199996E-3,1.0799999,
,,,-16.1999986E-3,1.0799999,
,,,-16.1799993E-3,1.0799999,
,,,-16.1599983E-3,1.0799999,
,,,-16.1399990E-3,1.0799999,
,,,-16.1199979E-3,1.0799999,
,,,-16.0999987E-3,1.0799999,
,,,-16.0799995E-3,1.0799999,
,,,-16.0599984E-3,1.1000000,
,,,-16.0399992E-3,1.0599999,
,,,-16.0199981E-3,1.1000000,
,,,-15.9999989E-3,1.1000000,
,,,-15.9799978E-3,1.0799999,
,,,-15.9599986E-3,1.1000000,
,,,-15.9399994E-3,1.0799999,
,,,-15.9199983E-3,1.1000000,
,,,-15.8999991E-3,1.1000000,
,,,-15.8799980E-3,1.1000000,
,,,-15.8599988E-3,1.1000000,
,,,-15.8399995E-3,1.1000000,
,,,-15.8199985E-3,1.1000000,
,,,-15.7999992E-3,1.1000000,
,,,-15.7799982E-3,1.1000000,
,,,-15.7599989E-3,1.1000000,
,,,-15.7399978E-3,1.0799999,
,,,-15.7199986E-3,1.1000000,
,,,-15.6999994E-3,1.0799999,
,,,-15.6799983E-3,1.1000000,
,,,-15.6599991E-3,1.1000000,
,,,-15.6399980E-3,1.1000000,
,,,-15.6199988E-3,1.1000000,
,,,-15.5999986E-3,1.1000000,
,,,-15.5799985E-3,1.1000000,
,,,-15.5599983E-3,1.1000000,
,,,-15.5399991E-3,1.1000000,
,,,-15.5199990E-3,1.1000000,
,,,-15.4999988E-3,1.1200000,
,,,-15.4799987E-3,1.1000000,
,,,-15.4599985E-3,1.1000000,
,,,-15.4399984E-3,1.1000000,
,,,-15.4199991E-3,1.1000000,
,,,-15.3999990E-3,1.1000000,
,,,-15.3799988E-3,1.1000000,
,,,-15.3599987E-3,1.1000000,
,,,-15.3399985E-3,1.1000000,
,,,-15.3199984E-3,1.1000000,
,,,-15.2999992E-3,1.1000000,
,,,-15.2799990E-3,1.1000000,
,,,-15.2599989E-3,1.1000000,
,,,-15.2399987E-3,1.1000000,
,,,-15.2199985E-3,1.1000000,
,,,-15.1999984E-3,1.1000000,
,,,-15.1799992E-3,1.1200000,
,,,-15.1599990E-3,1.1000000,
,,,-15.1399989E-3,1.1000000,
,,,-15.1199987E-3,1.1200000,
,,,-15.0999986E-3,1.1200000,
,,,-15.0799984E-3,1.1000000,
,,,-15.0599992E-3,1.1000000,
,,,-15.0399990E-3,1.1000000,
,,,-15.0199989E-3,1.1000000,
,,,-14.9999987E-3,1.1200000,
,,,-14.9799986E-3,1.1200000,
,,,-14.9599984E-3,1.1200000,
,,,-14.9399992E-3,1.1200000,
,,,-14.9199991E-3,1.1200000,
,,,-14.8999989E-3,1.1400000,
,,,-14.8799988E-3,1.1200000,
,,,-14.8599986E-3,1.1200000,
,,,-14.8399984E-3,1.1200000,
,,,-14.8199992E-3,1.1200000,
,,,-14.7999991E-3,1.1200000,
,,,-14.7799989E-3,1.1400000,
,,,-14.7599988E-3,1.1200000,
,,,-14.7399986E-3,1.1200000,
,,,-14.7199985E-3,1.1400000,
,,,-14.6999983E-3,1.1400000,
,,,-14.6799991E-3,1.1200000,
,,,-14.6599989E-3,1.1200000,
,,,-14.6399988E-3,1.1200000,
,,,-14.6199986E-3,1.1200000,
,,,-14.5999985E-3,1.1400000,
,,,-14.5799983E-3,1.1400000,
,,,-14.5599991E-3,1.1400000,
,,,-14.5399990E-3,1.1400000,
,,,-14.5199988E-3,1.1400000,
,,,-14.4999987E-3,1.1400000,
,,,-14.4799985E-3,1.1400000,
,,,-14.4599983E-3,1.1400000,
,,,-14.4399991E-3,1.1400000,
,,,-14.4199990E-3,1.1400000,
,,,-14.3999988E-3,1.1400000,
,,,-14.3799987E-3,1.1400000,
,,,-14.3599985E-3,1.1400000,
,,,-14.3399984E-3,1.1400000,
,,,-14.3199991E-3,1.1400000,
,,,-14.2999990E-3,1.1600000,
,,,-14.2799988E-3,1.1600000,
,,,-14.2599987E-3,1.1600000,
,,,-14.2399985E-3,1.1400000,
,,,-14.2199984E-3,1.1600000,
,,,-14.1999992E-3,1.1600000,
,,,-14.1799990E-3,1.1600000,
,,,-14.1599989E-3,1.1600000,
,,,-14.1399987E-3,1.1600000,
,,,-14.1199986E-3,1.1600000,
,,,-14.0999984E-3,1.1600000,
,,,-14.0799992E-3,1.1600000,
,,,-14.0599990E-3,1.1600000,
,,,-14.0399989E-3,1.1600000,
,,,-14.0199987E-3,1.1600000,
,,,-13.9999986E-3,1.1600000,
,,,-13.9799984E-3,1.1600000,
,,,-13.9599992E-3,1.1600000,
,,,-13.9399990E-3,1.1600000,
,,,-13.9199989E-3,1.1600000,
,,,-13.8999987E-3,1.1600000,
,,,-13.8799986E-3,1.1600000,
,,,-13.8599984E-3,1.1600000,
,,,-13.8399992E-3,1.1600000,
,,,-13.8199991E-3,1.1600000,
,,,-13.7999989E-3,1.1600000,
,,,-13.7799988E-3,1.1600000,
,,,-13.7599986E-3,1.1600000,
,,,-13.7399985E-3,1.1600000,
,,,-13.7199992E-3,1.1600000,
,,,-13.6999991E-3,1.1600000,
,,,-13.6799989E-3,1.1600000,
,,,-13.6599988E-3,1.1600000,
,,,-13.6399986E-3,1.1799999,
,,,-13.6199985E-3,1.1799999,
,,,-13.5999992E-3,1.1600000,
,,,-13.5799991E-3,1.1799999,
,,,-13.5599989E-3,1.1799999,
,,,-13.5399988E-3,1.1799999,
,,,-13.5199986E-3,1.1600000,
,,,-13.4999985E-3,1.1799999,
,,,-13.4799983E-3,1.1799999,
,,,-13.4599991E-3,1.1799999,
,,,-13.4399990E-3,1.1799999,
,,,-13.4199988E-3,1.1799999,
,,,-13.3999987E-3,1.1799999,
,,,-13.3799985E-3,1.1799999,
,,,-13.3599984E-3,1.1799999,
,,,-13.3399991E-3,1.1600000,
,,,-13.3199990E-3,1.1799999,
,,,-13.2999988E-3,1.1799999,
,,,-13.2799987E-3,1.1999999,
,,,-13.2599985E-3,1.1799999,
,,,-13.2399984E-3,1.1999999,
,,,-13.2199991E-3,1.1799999,
,,,-13.1999990E-3,1.1799999,
,,,-13.1799988E-3,1.1999999,
,,,-13.1599987E-3,1.1999999,
,,,-13.1399985E-3,1.1999999,
,,,-13.1199984E-3,1.1799999,
,,,-13.0999992E-3,1.1799999,
,,,-13.0799990E-3,1.1799999,
,,,-13.0599989E-3,1.1999999,
,,,-13.0399987E-3,1.1999999,
,,,-13.0199986E-3,1.1999999,
,,,-12.9999984E-3,1.1999999,
,,,-12.9799992E-3,1.1799999,
,,,-12.9599990E-3,1.1999999,
,,,-12.9399989E-3,1.1999999,
,,,-12.9199987E-3,1.1999999,
,,,-12.8999986E-3,1.1799999,
,,,-12.8799984E-3,1.1999999,
,,,-12.8599992E-3,1.1999999,
,,,-12.8399990E-3,1.1999999,
,,,-12.8199989E-3,1.1999999,
,,,-12.7999987E-3,1.1999999,
,,,-12.7799986E-3,1.1999999,
,,,-12.7599984E-3,1.1999999,
,,,-12.7399992E-3,1.2200000,
,,,-12.7199991E-3,1.1999999,
,,,-12.6999989E-3,1.2200000,
,,,-12.6799988E-3,1.1999999,
,,,-12.6599986E-3,1.2200000,
,,,-12.6399985E-3,1.1999999,
,,,-12.6199992E-3,1.2200000,
,,,-12.5999991E-3,1.1999999,
,,,-12.5799989E-3,1.1999999,
,,,-12.5599988E-3,1.2200000,
,,,-12.5399986E-3,1.2200000,
,,,-12.5199985E-3,1.2200000,
,,,-12.4999993E-3,1.2200000,
,,,-12.4799991E-3,1.2200000,
,,,-12.4599990E-3,1.2200000,
,,,-12.4399988E-3,1.2200000,
,,,-12.4199986E-3,1.2200000,
,,,-12.3999985E-3,1.2200000,
,,,-12.3799993E-3,1.2200000,
,,,-12.3599991E-3,1.2200000,
,,,-12.3399990E-3,1.2200000,
,,,-12.3199988E-3,1.2200000,
,,,-12.2999987E-3,1.2200000,
,,,-12.2799985E-3,1.1999999,
,,,-12.2599993E-3,1.2200000,
,,,-12.2399991E-3,1.2200000,
,,,-12.2199990E-3,1.2200000,
,,,-12.1999988E-3,1.2400000,
,,,-12.1799987E-3,1.2200000,
,,,-12.1599985E-3,1.2200000,
,,,-12.1399984E-3,1.2200000,
,,,-12.1199992E-3,1.2200000,
,,,-12.0999990E-3,1.2200000,
,,,-12.0799989E-3,1.2200000,
,,,-12.0599987E-3,1.2200000,
,,,-12.0399985E-3,1.2200000,
,,,-12.0199984E-3,1.2200000,
,,,-11.9999992E-3,1.2400000,
,,,-11.9799990E-3,1.2200000,
,,,-11.9599989E-3,1.2400000,
,,,-11.9399987E-3,1.2600000,
,,,-11.9199986E-3,1.2400000,
,,,-11.8999984E-3,1.2400000,
,,,-11.8799992E-3,1.2200000,
,,,-11.8599990E-3,1.2400000,
,,,-11.8399989E-3,1.2400000,
,,,-11.8199987E-3,1.2400000,
,,,-11.7999986E-3,1.2600000,
,,,-11.7799984E-3,1.2600000,
,,,-11.7599992E-3,1.2400000,
,,,-11.7399991E-3,1.2400000,
,,,-11.7199989E-3,1.2400000,
,,,-11.6999988E-3,1.2600000,
,,,-11.6799986E-3,1.2200000,
,,,-11.6599984E-3,1.2600000,
,,,-11.6399992E-3,1.2400000,
,,,-11.6199991E-3,1.2400000,
,,,-11.5999989E-3,1.2400000,
