polarbears/bragg2/88.csv

Record Length,2500,Points,-49.99999702E-3,2.83999991,
Sample Interval,39.99999899E-6,s,-49.95999858E-3,2.83999991,
Trigger Point,1.2500000E3,Samples,-49.91999641E-3,2.83999991,
,,,-49.87999797E-3,2.79999995,
,,,-49.83999580E-3,2.83999991,
,,,-49.79999736E-3,2.83999991,
Source,CH1,,-49.75999519E-3,2.79999995,
Vertical Units,Volts,,-49.71999675E-3,2.83999991,
Vertical Scale,999.999977648E-3,,-49.67999831E-3,2.79999995,
Vertical Offset,0,,-49.63999614E-3,2.79999995,
Horizontal Units,s,,-49.59999770E-3,2.83999991,
Horizontal Scale,9.999999747E-3,,-49.55999553E-3,2.83999991,
Pt Fmt,Y,,-49.51999709E-3,2.79999995,
Yzero,0.0,,-49.47999865E-3,2.79999995,
Probe Atten,1.000000,,-49.43999648E-3,2.79999995,
,,,-49.39999804E-3,2.83999991,
Note,TDS 2001C - 17:50:58   2025-05-14,,-49.35999587E-3,2.79999995,
,,,-49.31999743E-3,2.79999995,
,,,-49.27999526E-3,2.79999995,
,,,-49.23999682E-3,2.75999999,
,,,-49.19999838E-3,2.79999995,
,,,-49.15999621E-3,2.75999999,
,,,-49.11999777E-3,2.75999999,
,,,-49.07999560E-3,2.75999999,
,,,-49.03999716E-3,2.75999999,
,,,-48.99999872E-3,2.75999999,
,,,-48.95999655E-3,2.75999999,
,,,-48.91999811E-3,2.75999999,
,,,-48.87999594E-3,2.72000003,
,,,-48.83999750E-3,2.72000003,
,,,-48.79999533E-3,2.72000003,
,,,-48.75999689E-3,2.72000003,
,,,-48.71999845E-3,2.6799998,
,,,-48.67999628E-3,2.6799998,
,,,-48.63999784E-3,2.6799998,
,,,-48.59999567E-3,2.6399999,
,,,-48.55999723E-3,2.6799998,
,,,-48.51999879E-3,2.6799998,
,,,-48.47999662E-3,2.6399999,
,,,-48.43999818E-3,2.6399999,
,,,-48.39999601E-3,2.6399999,
,,,-48.35999757E-3,2.5999999,
,,,-48.31999540E-3,2.5999999,
,,,-48.27999696E-3,2.5999999,
,,,-48.23999852E-3,2.5599999,
,,,-48.19999635E-3,2.5599999,
,,,-48.15999791E-3,2.5599999,
,,,-48.11999574E-3,2.5599999,
,,,-48.07999730E-3,2.5599999,
,,,-48.03999886E-3,2.5599999,
,,,-47.99999669E-3,2.5200000,
,,,-47.95999825E-3,2.5200000,
,,,-47.91999608E-3,2.5200000,
,,,-47.87999764E-3,2.5200000,
,,,-47.83999547E-3,2.4800000,
,,,-47.79999703E-3,2.4800000,
,,,-47.75999859E-3,2.4800000,
,,,-47.71999642E-3,2.4800000,
,,,-47.67999798E-3,2.4800000,
,,,-47.63999581E-3,2.4800000,
,,,-47.59999737E-3,2.4800000,
,,,-47.55999893E-3,2.4800000,
,,,-47.51999676E-3,2.4400001,
,,,-47.47999832E-3,2.4400001,
,,,-47.43999615E-3,2.4400001,
,,,-47.39999771E-3,2.4400001,
,,,-47.35999554E-3,2.4400001,
,,,-47.31999710E-3,2.4400001,
,,,-47.27999866E-3,2.4400001,
,,,-47.23999649E-3,2.4400001,
,,,-47.19999805E-3,2.4400001,
,,,-47.15999588E-3,2.4400001,
,,,-47.11999744E-3,2.4400001,
,,,-47.07999527E-3,2.3999999,
,,,-47.03999683E-3,2.4400001,
,,,-46.99999839E-3,2.3999999,
,,,-46.95999622E-3,2.4400001,
,,,-46.91999778E-3,2.3999999,
,,,-46.87999561E-3,2.3999999,
,,,-46.83999717E-3,2.4400001,
,,,-46.79999873E-3,2.4400001,
,,,-46.75999656E-3,2.3999999,
,,,-46.71999812E-3,2.4400001,
,,,-46.67999595E-3,2.4400001,
,,,-46.63999751E-3,2.4400001,
,,,-46.59999534E-3,2.4400001,
,,,-46.55999690E-3,2.4400001,
,,,-46.51999846E-3,2.4400001,
,,,-46.47999629E-3,2.4400001,
,,,-46.43999785E-3,2.4400001,
,,,-46.39999568E-3,2.4400001,
,,,-46.35999724E-3,2.4400001,
,,,-46.31999880E-3,2.4400001,
,,,-46.27999663E-3,2.4400001,
,,,-46.23999819E-3,2.4400001,
,,,-46.19999602E-3,2.4800000,
,,,-46.15999758E-3,2.4400001,
,,,-46.11999542E-3,2.4400001,
,,,-46.07999697E-3,2.4800000,
,,,-46.03999853E-3,2.4800000,
,,,-45.99999636E-3,2.4400001,
,,,-45.95999792E-3,2.4800000,
,,,-45.91999575E-3,2.4800000,
,,,-45.87999731E-3,2.4400001,
,,,-45.83999887E-3,2.4800000,
,,,-45.79999670E-3,2.4800000,
,,,-45.75999826E-3,2.4800000,
,,,-45.71999609E-3,2.4800000,
,,,-45.67999765E-3,2.4800000,
,,,-45.63999549E-3,2.4800000,
,,,-45.59999704E-3,2.4800000,
,,,-45.55999860E-3,2.4800000,
,,,-45.51999643E-3,2.5200000,
,,,-45.47999799E-3,2.4800000,
,,,-45.43999583E-3,2.4800000,
,,,-45.39999738E-3,2.4800000,
,,,-45.35999894E-3,2.4800000,
,,,-45.31999677E-3,2.4800000,
,,,-45.27999833E-3,2.4800000,
,,,-45.23999617E-3,2.4800000,
,,,-45.19999772E-3,2.5200000,
,,,-45.15999556E-3,2.4800000,
,,,-45.11999711E-3,2.5200000,
,,,-45.07999867E-3,2.5599999,
,,,-45.03999650E-3,2.5200000,
,,,-44.99999806E-3,2.5200000,
,,,-44.95999590E-3,2.5200000,
,,,-44.91999745E-3,2.5200000,
,,,-44.87999529E-3,2.5200000,
,,,-44.83999684E-3,2.5599999,
,,,-44.79999840E-3,2.5599999,
,,,-44.75999624E-3,2.5599999,
,,,-44.71999779E-3,2.5200000,
,,,-44.67999563E-3,2.5200000,
,,,-44.63999718E-3,2.5599999,
,,,-44.59999874E-3,2.5599999,
,,,-44.55999658E-3,2.5599999,
,,,-44.51999813E-3,2.5599999,
,,,-44.47999597E-3,2.5599999,
,,,-44.43999752E-3,2.5599999,
,,,-44.39999536E-3,2.5599999,
,,,-44.35999691E-3,2.5999999,
,,,-44.31999847E-3,2.5999999,
,,,-44.27999631E-3,2.5999999,
,,,-44.23999786E-3,2.5999999,
,,,-44.19999570E-3,2.5999999,
,,,-44.15999725E-3,2.5999999,
,,,-44.11999881E-3,2.5999999,
,,,-44.07999665E-3,2.5999999,
,,,-44.03999820E-3,2.5999999,
,,,-43.99999604E-3,2.6399999,
,,,-43.95999759E-3,2.5999999,
,,,-43.91999543E-3,2.5999999,
,,,-43.87999699E-3,2.6399999,
,,,-43.83999854E-3,2.5999999,
,,,-43.79999638E-3,2.6399999,
,,,-43.75999793E-3,2.6399999,
,,,-43.71999577E-3,2.6399999,
,,,-43.67999732E-3,2.6399999,
,,,-43.63999888E-3,2.6399999,
,,,-43.59999672E-3,2.6399999,
,,,-43.55999827E-3,2.6799998,
,,,-43.51999611E-3,2.6799998,
,,,-43.47999766E-3,2.6799998,
,,,-43.43999550E-3,2.6799998,
,,,-43.39999706E-3,2.6799998,
,,,-43.35999861E-3,2.6799998,
,,,-43.31999645E-3,2.6799998,
,,,-43.27999800E-3,2.6799998,
,,,-43.23999584E-3,2.6799998,
,,,-43.19999740E-3,2.6799998,
,,,-43.15999895E-3,2.6799998,
,,,-43.11999679E-3,2.72000003,
,,,-43.07999834E-3,2.6799998,
,,,-43.03999618E-3,2.72000003,
,,,-42.99999774E-3,2.72000003,
,,,-42.95999557E-3,2.72000003,
,,,-42.91999713E-3,2.72000003,
,,,-42.87999868E-3,2.72000003,
,,,-42.83999652E-3,2.72000003,
,,,-42.79999807E-3,2.72000003,
,,,-42.75999591E-3,2.72000003,
,,,-42.71999747E-3,2.72000003,
,,,-42.67999902E-3,2.72000003,
,,,-42.63999686E-3,2.75999999,
,,,-42.59999841E-3,2.72000003,
,,,-42.55999625E-3,2.72000003,
,,,-42.51999781E-3,2.75999999,
,,,-42.47999564E-3,2.75999999,
,,,-42.43999720E-3,2.75999999,
,,,-42.39999875E-3,2.75999999,
,,,-42.35999659E-3,2.72000003,
,,,-42.31999815E-3,2.72000003,
,,,-42.27999598E-3,2.75999999,
,,,-42.23999754E-3,2.75999999,
,,,-42.19999537E-3,2.75999999,
,,,-42.15999693E-3,2.75999999,
,,,-42.11999848E-3,2.75999999,
,,,-42.07999632E-3,2.75999999,
,,,-42.03999788E-3,2.75999999,
,,,-41.99999571E-3,2.75999999,
,,,-41.95999727E-3,2.75999999,
,,,-41.91999882E-3,2.75999999,
,,,-41.87999666E-3,2.75999999,
,,,-41.83999822E-3,2.75999999,
,,,-41.79999605E-3,2.75999999,
,,,-41.75999761E-3,2.75999999,
,,,-41.71999544E-3,2.79999995,
,,,-41.67999700E-3,2.79999995,
,,,-41.63999856E-3,2.79999995,
,,,-41.59999639E-3,2.79999995,
,,,-41.55999795E-3,2.79999995,
,,,-41.51999578E-3,2.79999995,
,,,-41.47999734E-3,2.79999995,
,,,-41.43999889E-3,2.79999995,
,,,-41.39999673E-3,2.79999995,
,,,-41.35999829E-3,2.79999995,
,,,-41.31999612E-3,2.79999995,
,,,-41.27999768E-3,2.79999995,
,,,-41.23999551E-3,2.79999995,
,,,-41.19999707E-3,2.79999995,
,,,-41.15999863E-3,2.83999991,
,,,-41.11999646E-3,2.79999995,
,,,-41.07999802E-3,2.83999991,
,,,-41.03999585E-3,2.79999995,
,,,-40.99999741E-3,2.79999995,
,,,-40.95999897E-3,2.83999991,
,,,-40.91999680E-3,2.79999995,
,,,-40.87999836E-3,2.83999991,
,,,-40.83999619E-3,2.79999995,
,,,-40.79999775E-3,2.83999991,
,,,-40.75999558E-3,2.83999991,
,,,-40.71999714E-3,2.79999995,
,,,-40.67999870E-3,2.83999991,
,,,-40.63999653E-3,2.83999991,
,,,-40.59999809E-3,2.79999995,
,,,-40.55999592E-3,2.83999991,
,,,-40.51999748E-3,2.83999991,
,,,-40.47999904E-3,2.83999991,
,,,-40.43999687E-3,2.83999991,
,,,-40.39999843E-3,2.83999991,
,,,-40.35999626E-3,2.83999991,
,,,-40.31999782E-3,2.83999991,
,,,-40.27999565E-3,2.83999991,
,,,-40.23999721E-3,2.83999991,
,,,-40.19999877E-3,2.83999991,
,,,-40.15999660E-3,2.83999991,
,,,-40.11999816E-3,2.83999991,
,,,-40.07999599E-3,2.83999991,
,,,-40.03999755E-3,2.83999991,
,,,-39.99999911E-3,2.87999988,
,,,-39.95999694E-3,2.83999991,
,,,-39.91999850E-3,2.83999991,
,,,-39.87999633E-3,2.83999991,
,,,-39.83999789E-3,2.83999991,
,,,-39.79999572E-3,2.83999991,
,,,-39.75999728E-3,2.83999991,
,,,-39.71999884E-3,2.83999991,
,,,-39.67999667E-3,2.83999991,
,,,-39.63999823E-3,2.83999991,
,,,-39.59999606E-3,2.83999991,
,,,-39.55999762E-3,2.83999991,
,,,-39.51999545E-3,2.83999991,
,,,-39.47999701E-3,2.83999991,
,,,-39.43999857E-3,2.79999995,
,,,-39.39999640E-3,2.79999995,
,,,-39.35999796E-3,2.79999995,
,,,-39.31999579E-3,2.79999995,
,,,-39.27999735E-3,2.79999995,
,,,-39.23999891E-3,2.79999995,
,,,-39.19999674E-3,2.79999995,
,,,-39.15999830E-3,2.75999999,
,,,-39.11999613E-3,2.79999995,
,,,-39.07999769E-3,2.75999999,
,,,-39.03999552E-3,2.75999999,
,,,-38.99999708E-3,2.75999999,
,,,-38.95999864E-3,2.72000003,
,,,-38.91999647E-3,2.75999999,
,,,-38.87999803E-3,2.72000003,
,,,-38.83999586E-3,2.72000003,
,,,-38.79999742E-3,2.6799998,
,,,-38.75999898E-3,2.6799998,
,,,-38.71999681E-3,2.6799998,
,,,-38.67999837E-3,2.6799998,
,,,-38.63999620E-3,2.6799998,
,,,-38.59999776E-3,2.6799998,
,,,-38.55999559E-3,2.6799998,
,,,-38.51999715E-3,2.6399999,
,,,-38.47999871E-3,2.6399999,
,,,-38.43999654E-3,2.6399999,
,,,-38.39999810E-3,2.6399999,
,,,-38.35999593E-3,2.5999999,
,,,-38.31999749E-3,2.5999999,
,,,-38.27999905E-3,2.5999999,
,,,-38.23999688E-3,2.5999999,
,,,-38.19999844E-3,2.5599999,
,,,-38.15999627E-3,2.5599999,
,,,-38.11999783E-3,2.5599999,
,,,-38.07999566E-3,2.5599999,
,,,-38.03999722E-3,2.5599999,
,,,-37.99999878E-3,2.5200000,
,,,-37.95999661E-3,2.5200000,
,,,-37.91999817E-3,2.5200000,
,,,-37.87999600E-3,2.5200000,
,,,-37.83999756E-3,2.4800000,
,,,-37.79999912E-3,2.4800000,
,,,-37.75999695E-3,2.4800000,
,,,-37.71999851E-3,2.4800000,
,,,-37.67999634E-3,2.4800000,
,,,-37.63999790E-3,2.4800000,
,,,-37.59999573E-3,2.4800000,
,,,-37.55999729E-3,2.4800000,
,,,-37.51999885E-3,2.4400001,
,,,-37.47999668E-3,2.4400001,
,,,-37.43999824E-3,2.4800000,
,,,-37.39999607E-3,2.4400001,
,,,-37.35999763E-3,2.4400001,
,,,-37.31999919E-3,2.4400001,
,,,-37.27999702E-3,2.4400001,
,,,-37.23999858E-3,2.3999999,
,,,-37.19999641E-3,2.4400001,
,,,-37.15999797E-3,2.3999999,
,,,-37.11999580E-3,2.4400001,
,,,-37.07999736E-3,2.4400001,
,,,-37.03999892E-3,2.3999999,
,,,-36.99999675E-3,2.4400001,
,,,-36.95999831E-3,2.3999999,
,,,-36.91999614E-3,2.4400001,
,,,-36.87999770E-3,2.3999999,
,,,-36.83999553E-3,2.4400001,
,,,-36.79999709E-3,2.4400001,
,,,-36.75999865E-3,2.4400001,
,,,-36.71999648E-3,2.4400001,
,,,-36.67999804E-3,2.4400001,
,,,-36.63999587E-3,2.4400001,
,,,-36.59999743E-3,2.4400001,
,,,-36.55999899E-3,2.4400001,
,,,-36.51999682E-3,2.4400001,
,,,-36.47999838E-3,2.4400001,
,,,-36.43999621E-3,2.4400001,
,,,-36.39999777E-3,2.4400001,
,,,-36.35999560E-3,2.4400001,
,,,-36.31999716E-3,2.4400001,
,,,-36.27999872E-3,2.4400001,
,,,-36.23999655E-3,2.4400001,
,,,-36.19999811E-3,2.4400001,
,,,-36.15999594E-3,2.4800000,
,,,-36.11999750E-3,2.4800000,
,,,-36.07999906E-3,2.4800000,
,,,-36.03999689E-3,2.4400001,
,,,-35.99999845E-3,2.4400001,
,,,-35.95999628E-3,2.4400001,
,,,-35.91999784E-3,2.4800000,
,,,-35.87999567E-3,2.4800000,
,,,-35.83999723E-3,2.4800000,
,,,-35.79999879E-3,2.4800000,
,,,-35.75999662E-3,2.4800000,
,,,-35.71999818E-3,2.4800000,
,,,-35.67999601E-3,2.4800000,
,,,-35.63999757E-3,2.4800000,
,,,-35.59999913E-3,2.4800000,
,,,-35.55999696E-3,2.4800000,
,,,-35.51999852E-3,2.4800000,
,,,-35.47999635E-3,2.4800000,
,,,-35.43999791E-3,2.5200000,
,,,-35.39999574E-3,2.4800000,
,,,-35.35999730E-3,2.4800000,
,,,-35.31999886E-3,2.4800000,
,,,-35.27999669E-3,2.5200000,
,,,-35.23999825E-3,2.5200000,
,,,-35.19999608E-3,2.5200000,
,,,-35.15999764E-3,2.5200000,
,,,-35.11999920E-3,2.5200000,
,,,-35.07999703E-3,2.5599999,
,,,-35.03999859E-3,2.5200000,
,,,-34.99999642E-3,2.5599999,
,,,-34.95999798E-3,2.5599999,
,,,-34.91999581E-3,2.5200000,
,,,-34.87999737E-3,2.5599999,
,,,-34.83999893E-3,2.5599999,
,,,-34.79999676E-3,2.5599999,
,,,-34.75999832E-3,2.5599999,
,,,-34.71999615E-3,2.5599999,
,,,-34.67999771E-3,2.5599999,
,,,-34.63999927E-3,2.5599999,
,,,-34.59999710E-3,2.5599999,
,,,-34.55999866E-3,2.5599999,
,,,-34.51999649E-3,2.5599999,
,,,-34.47999805E-3,2.5599999,
,,,-34.43999588E-3,2.5999999,
,,,-34.39999744E-3,2.5999999,
,,,-34.35999900E-3,2.5999999,
,,,-34.31999683E-3,2.5599999,
,,,-34.27999839E-3,2.5999999,
,,,-34.23999622E-3,2.5999999,
,,,-34.19999778E-3,2.5999999,
,,,-34.15999562E-3,2.5999999,
,,,-34.11999717E-3,2.5999999,
,,,-34.07999873E-3,2.5999999,
,,,-34.03999656E-3,2.5999999,
,,,-33.99999812E-3,2.5999999,
,,,-33.95999596E-3,2.5999999,
,,,-33.91999751E-3,2.5999999,
,,,-33.87999907E-3,2.6399999,
,,,-33.83999690E-3,2.5999999,
,,,-33.79999846E-3,2.6399999,
,,,-33.75999629E-3,2.6399999,
,,,-33.71999785E-3,2.6399999,
,,,-33.67999569E-3,2.6399999,
,,,-33.63999724E-3,2.6399999,
,,,-33.59999880E-3,2.6399999,
,,,-33.55999663E-3,2.6399999,
,,,-33.51999819E-3,2.6799998,
,,,-33.47999603E-3,2.6799998,
,,,-33.43999758E-3,2.6399999,
,,,-33.39999914E-3,2.6799998,
,,,-33.35999697E-3,2.6799998,
,,,-33.31999853E-3,2.6799998,
,,,-33.27999637E-3,2.6799998,
,,,-33.23999792E-3,2.6799998,
,,,-33.19999576E-3,2.6799998,
,,,-33.15999731E-3,2.6799998,
,,,-33.11999887E-3,2.6799998,
,,,-33.07999671E-3,2.6799998,
,,,-33.03999826E-3,2.6799998,
,,,-32.99999610E-3,2.6799998,
,,,-32.95999765E-3,2.6799998,
,,,-32.91999921E-3,2.6799998,
,,,-32.87999704E-3,2.6799998,
,,,-32.83999860E-3,2.6799998,
,,,-32.79999644E-3,2.6799998,
,,,-32.75999799E-3,2.72000003,
,,,-32.71999583E-3,2.72000003,
,,,-32.67999738E-3,2.72000003,
,,,-32.63999894E-3,2.72000003,
,,,-32.59999678E-3,2.72000003,
,,,-32.55999833E-3,2.72000003,
,,,-32.51999617E-3,2.72000003,
,,,-32.47999772E-3,2.72000003,
,,,-32.43999928E-3,2.72000003,
,,,-32.39999712E-3,2.75999999,
,,,-32.35999867E-3,2.72000003,
,,,-32.31999651E-3,2.75999999,
,,,-32.27999806E-3,2.72000003,
,,,-32.23999590E-3,2.72000003,
,,,-32.19999745E-3,2.75999999,
,,,-32.15999901E-3,2.75999999,
,,,-32.11999685E-3,2.75999999,
,,,-32.07999840E-3,2.75999999,
,,,-32.03999624E-3,2.75999999,
,,,-31.99999779E-3,2.75999999,
,,,-31.95999563E-3,2.75999999,
,,,-31.91999719E-3,2.75999999,
,,,-31.87999874E-3,2.75999999,
,,,-31.83999658E-3,2.75999999,
,,,-31.79999813E-3,2.75999999,
,,,-31.75999597E-3,2.75999999,
,,,-31.71999753E-3,2.75999999,
,,,-31.67999908E-3,2.79999995,
,,,-31.63999692E-3,2.79999995,
,,,-31.59999847E-3,2.75999999,
,,,-31.55999631E-3,2.75999999,
,,,-31.51999786E-3,2.75999999,
,,,-31.47999570E-3,2.75999999,
,,,-31.43999726E-3,2.79999995,
,,,-31.39999881E-3,2.79999995,
,,,-31.35999665E-3,2.79999995,
,,,-31.31999820E-3,2.79999995,
,,,-31.27999604E-3,2.79999995,
,,,-31.23999760E-3,2.79999995,
,,,-31.19999729E-3,2.79999995,
,,,-31.15999699E-3,2.79999995,
,,,-31.11999668E-3,2.79999995,
,,,-31.07999824E-3,2.79999995,
,,,-31.03999794E-3,2.79999995,
,,,-30.99999763E-3,2.83999991,
,,,-30.95999733E-3,2.79999995,
,,,-30.91999702E-3,2.79999995,
,,,-30.87999672E-3,2.79999995,
,,,-30.83999828E-3,2.83999991,
,,,-30.79999797E-3,2.79999995,
,,,-30.75999767E-3,2.79999995,
,,,-30.71999736E-3,2.79999995,
,,,-30.67999706E-3,2.79999995,
,,,-30.63999675E-3,2.79999995,
,,,-30.59999831E-3,2.79999995,
,,,-30.55999801E-3,2.79999995,
,,,-30.51999770E-3,2.83999991,
,,,-30.47999740E-3,2.83999991,
,,,-30.43999709E-3,2.79999995,
,,,-30.39999679E-3,2.83999991,
,,,-30.35999835E-3,2.83999991,
,,,-30.31999804E-3,2.83999991,
,,,-30.27999774E-3,2.83999991,
,,,-30.23999743E-3,2.83999991,
,,,-30.19999713E-3,2.83999991,
,,,-30.15999682E-3,2.83999991,
,,,-30.11999838E-3,2.83999991,
,,,-30.07999808E-3,2.83999991,
,,,-30.03999777E-3,2.83999991,
,,,-29.99999747E-3,2.83999991,
,,,-29.95999716E-3,2.83999991,
,,,-29.91999686E-3,2.83999991,
,,,-29.87999842E-3,2.83999991,
,,,-29.83999811E-3,2.83999991,
,,,-29.79999781E-3,2.83999991,
,,,-29.75999750E-3,2.79999995,
,,,-29.71999720E-3,2.83999991,
,,,-29.67999689E-3,2.83999991,
,,,-29.63999845E-3,2.83999991,
,,,-29.59999815E-3,2.87999988,
,,,-29.55999784E-3,2.79999995,
,,,-29.51999754E-3,2.83999991,
,,,-29.47999723E-3,2.83999991,
,,,-29.43999693E-3,2.79999995,
,,,-29.39999662E-3,2.79999995,
,,,-29.35999818E-3,2.79999995,
,,,-29.31999788E-3,2.79999995,
,,,-29.27999757E-3,2.79999995,
,,,-29.23999727E-3,2.79999995,
,,,-29.19999696E-3,2.79999995,
,,,-29.15999666E-3,2.75999999,
,,,-29.11999822E-3,2.79999995,
,,,-29.07999791E-3,2.75999999,
,,,-29.03999761E-3,2.75999999,
,,,-28.99999730E-3,2.75999999,
,,,-28.95999700E-3,2.75999999,
,,,-28.91999669E-3,2.75999999,
,,,-28.87999825E-3,2.72000003,
,,,-28.83999795E-3,2.72000003,
,,,-28.79999764E-3,2.72000003,
,,,-28.75999734E-3,2.72000003,
,,,-28.71999703E-3,2.6799998,
,,,-28.67999673E-3,2.6799998,
,,,-28.63999829E-3,2.6799998,
,,,-28.59999798E-3,2.6399999,
,,,-28.55999768E-3,2.6799998,
,,,-28.51999737E-3,2.6799998,
,,,-28.47999707E-3,2.6799998,
,,,-28.43999676E-3,2.6399999,
,,,-28.39999832E-3,2.6399999,
,,,-28.35999802E-3,2.6399999,
,,,-28.31999771E-3,2.5999999,
,,,-28.27999741E-3,2.5999999,
,,,-28.23999710E-3,2.5999999,
,,,-28.19999680E-3,2.5599999,
,,,-28.15999836E-3,2.5599999,
,,,-28.11999805E-3,2.5599999,
,,,-28.07999775E-3,2.5599999,
,,,-28.03999744E-3,2.5200000,
,,,-27.99999714E-3,2.5200000,
,,,-27.95999683E-3,2.5200000,
,,,-27.91999839E-3,2.5200000,
,,,-27.87999809E-3,2.5200000,
,,,-27.83999778E-3,2.5200000,
,,,-27.79999748E-3,2.4800000,
,,,-27.75999717E-3,2.4800000,
,,,-27.71999687E-3,2.4800000,
,,,-27.67999843E-3,2.4800000,
,,,-27.63999812E-3,2.4800000,
,,,-27.59999782E-3,2.4400001,
,,,-27.55999751E-3,2.4400001,
,,,-27.51999721E-3,2.4400001,
,,,-27.47999690E-3,2.4800000,
,,,-27.43999846E-3,2.4400001,
,,,-27.39999816E-3,2.4400001,
,,,-27.35999785E-3,2.4400001,
,,,-27.31999755E-3,2.4400001,
,,,-27.27999724E-3,2.4400001,
,,,-27.23999694E-3,2.4400001,
,,,-27.19999850E-3,2.4400001,
,,,-27.15999819E-3,2.4400001,
,,,-27.11999789E-3,2.4400001,
,,,-27.07999758E-3,2.4400001,
,,,-27.03999728E-3,2.4400001,
,,,-26.99999698E-3,2.4400001,
,,,-26.95999667E-3,2.4400001,
,,,-26.91999823E-3,2.3999999,
,,,-26.87999792E-3,2.4400001,
,,,-26.83999762E-3,2.4400001,
,,,-26.79999731E-3,2.4400001,
,,,-26.75999701E-3,2.4400001,
,,,-26.71999671E-3,2.4400001,
,,,-26.67999826E-3,2.4400001,
,,,-26.63999796E-3,2.4400001,
,,,-26.59999765E-3,2.4400001,
,,,-26.55999735E-3,2.4400001,
,,,-26.51999705E-3,2.4400001,
,,,-26.47999674E-3,2.4400001,
,,,-26.43999830E-3,2.4400001,
,,,-26.39999799E-3,2.4400001,
,,,-26.35999769E-3,2.4400001,
,,,-26.31999739E-3,2.4400001,
,,,-26.27999708E-3,2.4800000,
,,,-26.23999678E-3,2.4800000,
,,,-26.19999833E-3,2.4400001,
,,,-26.15999803E-3,2.4400001,
,,,-26.11999772E-3,2.4800000,
,,,-26.07999742E-3,2.4800000,
,,,-26.03999712E-3,2.4400001,
,,,-25.99999681E-3,2.4400001,
,,,-25.95999837E-3,2.4800000,
,,,-25.91999806E-3,2.4400001,
,,,-25.87999776E-3,2.4800000,
,,,-25.83999746E-3,2.4800000,
,,,-25.79999715E-3,2.4800000,
,,,-25.75999685E-3,2.4800000,
,,,-25.71999840E-3,2.4800000,
,,,-25.67999810E-3,2.4800000,
,,,-25.63999780E-3,2.4800000,
,,,-25.59999749E-3,2.4800000,
,,,-25.55999719E-3,2.4800000,
,,,-25.51999688E-3,2.5200000,
,,,-25.47999844E-3,2.5200000,
,,,-25.43999813E-3,2.5200000,
,,,-25.39999783E-3,2.4800000,
,,,-25.35999753E-3,2.5200000,
,,,-25.31999722E-3,2.5200000,
,,,-25.27999692E-3,2.5200000,
,,,-25.23999847E-3,2.5200000,
,,,-25.19999817E-3,2.5200000,
,,,-25.15999787E-3,2.5200000,
,,,-25.11999756E-3,2.5599999,
,,,-25.07999726E-3,2.5200000,
,,,-25.03999695E-3,2.5599999,
,,,-24.99999851E-3,2.5200000,
,,,-24.95999821E-3,2.5599999,
,,,-24.91999790E-3,2.5599999,
,,,-24.87999760E-3,2.5599999,
,,,-24.83999729E-3,2.5599999,
,,,-24.79999699E-3,2.5599999,
,,,-24.75999855E-3,2.5599999,
,,,-24.71999824E-3,2.5599999,
,,,-24.67999794E-3,2.5599999,
,,,-24.63999763E-3,2.5599999,
,,,-24.59999733E-3,2.5599999,
,,,-24.55999702E-3,2.5599999,
,,,-24.51999858E-3,2.5999999,
,,,-24.47999828E-3,2.5599999,
,,,-24.43999797E-3,2.5599999,
,,,-24.39999767E-3,2.5599999,
,,,-24.35999736E-3,2.5599999,
,,,-24.31999706E-3,2.5999999,
,,,-24.27999675E-3,2.5999999,
,,,-24.23999831E-3,2.5999999,
,,,-24.19999801E-3,2.5999999,
,,,-24.15999770E-3,2.5999999,
,,,-24.11999740E-3,2.5999999,
,,,-24.07999709E-3,2.5999999,
